Place,Name,BirthDate,Sex,State,Division,Equipment,BodyweightKg,WeightClassKg,Squat1Kg,Squat2Kg,Squat3Kg,Best3SquatKg,Bench1Kg,Bench2Kg,Bench3Kg,Best3BenchKg,Deadlift1Kg,Deadlift2Kg,Deadlift3Kg,Best3DeadliftKg,TotalKg,Event
1,Abigail Hanrahan-Miller,,F,NL,Sub-Juniors,Raw,56.43,57,115,122.5,125,125,67.5,-72.5,-72.5,67.5,142.5,150.5,-161.5,150.5,343,SBD
1,Maddox Roeder,,F,AB,Sub-Juniors,Raw,62.68,63,95,102.5,-110,102.5,55,60,62.5,62.5,115,122.5,130,130,295,SBD
2,Jenna Coles,,F,NL,Sub-Juniors,Raw,60.22,63,97.5,102.5,105,105,52.5,55,-57.5,55,120,127.5,-135,127.5,287.5,SBD
1,Hannah Rose,,F,NL,Sub-Juniors,Raw,68.74,69,105,110,115,115,65,67.5,-70,67.5,135,142.5,148.5,148.5,331,SBD
2,Emma Heffron,,F,AB,Sub-Juniors,Raw,66.66,69,100,-110,110,110,57.5,62.5,65,65,110,122.5,-130,122.5,297.5,SBD
3,Maya Unuistum Rich,,F,NL,Sub-Juniors,Raw,66.06,69,90,95,97.5,97.5,45,50,-55,50,105,112.5,117.5,117.5,265,SBD
1,Abigail Taylor-Peckover,,F,ON,Sub-Juniors,Raw,73.89,76,-125,125,135,135,85,90,95,95,142.5,155,165,165,395,SBD
1,Lauren Simms,,F,NL,Sub-Juniors,Raw,82.01,84,105,112.5,115,115,50,52.5,55,55,132.5,140,145,145,315,SBD
2,Mattea Ahlijah,,F,BC,Sub-Juniors,Raw,81.08,84,92.5,100,107.5,107.5,45,50,-52.5,50,100,107.5,-115,107.5,265,SBD
1,Joy Edralin,,F,ON,Juniors,Raw,50.72,52,115,122.5,-127.5,122.5,57.5,62.5,65,65,145,155,165,165,352.5,SBD
2,Karine St-Coeur,,F,NB,Juniors,Raw,51.73,52,117.5,125,-130,125,60,65,-67.5,65,-145,145,-162.5,145,335,SBD
3,Sascha Berliner,,F,NS,Juniors,Raw,51.31,52,95,102.5,107.5,107.5,47.5,50,-52.5,50,132.5,137.5,145,145,302.5,SBD
DQ,Marie-Li Dion,,F,QC,Juniors,Raw,50.81,52,97.5,100,102.5,102.5,-70,-72.5,-72.5,,,,,,,SBD
1,Tori LaPerriere,,F,AB,Juniors,Raw,56.6,57,140,147.5,152.5,152.5,95,100,102.5,102.5,157.5,165,172.5,172.5,427.5,SBD
2,Kellie Chong,,F,ON,Juniors,Raw,55.22,57,147.5,152.5,155,155,80,-82.5,-82.5,80,180,185,192.5,192.5,427.5,SBD
3,Dakota Earle,,F,AB,Juniors,Raw,56.3,57,115,122.5,-127.5,122.5,75,-82.5,-82.5,75,-125,132.5,-140,132.5,330,SBD
4,Isabelle Louie,,F,BC,Juniors,Raw,56.64,57,110,115,-120,115,50,52.5,55,55,130,137.5,-140,137.5,307.5,SBD
5,Nicole Cantelon,,F,ON,Juniors,Raw,56.62,57,57.5,62.5,67.5,67.5,47.5,50,52.5,52.5,65,75,-77.5,75,195,SBD
1,Janelle Jolicoeur,,F,MB,Juniors,Raw,62.29,63,127.5,137.5,145,145,87.5,95,101,101,165,175,-185.5,175,421,SBD
2,Megan Janes,,F,BC,Juniors,Raw,63,63,127.5,135,140,140,-77.5,80,-85,80,150,160,-167.5,160,380,SBD
3,Delaney Lee,,F,ON,Juniors,Raw,61.42,63,120,127.5,135,135,57.5,60,-67.5,60,150,165,-172.5,165,360,SBD
4,Laurel Gollnick,,F,AB,Juniors,Raw,62.36,63,130,-137.5,-140,130,57.5,62.5,-67.5,62.5,142.5,152.5,-162.5,152.5,345,SBD
1,Ayn Marie Walls,,F,AB,Juniors,Raw,68.18,69,155,-162.5,162.5,162.5,75,77.5,80,80,167.5,175,182.5,182.5,425,SBD
2,Carla Swanepoel,,F,AB,Juniors,Raw,68.84,69,157.5,165,,165,67.5,72.5,77.5,77.5,165,172.5,-180,172.5,415,SBD
3,Mercier Pascale,,F,QC,Juniors,Raw,68.44,69,130,137.5,145,145,82.5,85,87.5,87.5,152.5,162.5,-167.5,162.5,395,SBD
4,Sienna De Carolis,,F,QC,Juniors,Raw,67.17,69,132.5,140,145,145,65,72.5,-77.5,72.5,160,-165,-165,160,377.5,SBD
5,Braelee Gordon,,F,ON,Juniors,Raw,68.4,69,135,-142.5,-142.5,135,65,-72.5,-72.5,65,155,165,-170,165,365,SBD
6,Georgia Kulbida,,F,BC,Juniors,Raw,67.93,69,125,137.5,142.5,142.5,75,80,-85,80,125,137.5,-140,137.5,360,SBD
7,Janelle Roby,,F,AB,Juniors,Raw,65.91,69,125,130,132.5,132.5,65,70,-75,70,140,147.5,152.5,152.5,355,SBD
8,Abigail Wiebe,,F,ON,Juniors,Raw,66.87,69,110,117.5,-125,117.5,92.5,-96,-96,92.5,127.5,132.5,140,140,350,SBD
9,Elizabeth Irvine,,F,AB,Juniors,Raw,67.98,69,117.5,122.5,-130,122.5,72.5,77.5,-82.5,77.5,132.5,140,-147.5,140,340,SBD
10,Annabelle Rouleau,,F,QC,Juniors,Raw,68.34,69,112.5,117.5,-120,117.5,65,70,-72.5,70,140,150,-155,150,337.5,SBD
11,Rachel Cloutier,,F,BC,Juniors,Raw,68.03,69,105,112.5,-115,112.5,70,72.5,-75,72.5,135,142.5,-145,142.5,327.5,SBD
1,Kayla Overchuk,,F,QC,Juniors,Raw,75.09,76,170,180,187.5,187.5,80,85,-87.5,85,185,195,-205.5,195,467.5,SBD
2,Kyla Becher,,F,AB,Juniors,Raw,71.45,76,147.5,157.5,-160,157.5,72.5,80,85,85,160,167.5,-172.5,167.5,410,SBD
3,Kiana Delsouz,,F,BC,Juniors,Raw,75.09,76,132.5,140,145,145,80,87.5,90,90,147.5,157.5,-177.5,157.5,392.5,SBD
4,Kassandra Sydor,,F,ON,Juniors,Raw,75.63,76,-137.5,137.5,147.5,147.5,67.5,-70,70,70,145,-155,165,165,382.5,SBD
5,Tsoi Hang Chung,,F,ON,Juniors,Raw,72.52,76,125,132.5,137.5,137.5,70,75,77.5,77.5,147.5,155,-162.5,155,370,SBD
1,Chinasaokwu Olivia Onuah,,F,ON,Juniors,Raw,82.44,84,120,125,130,130,62.5,65,67.5,67.5,200,210,215,215,412.5,SBD
2,Erin Cadigan,,F,NL,Juniors,Raw,82.37,84,150,-157.5,157.5,157.5,75,77.5,80,80,152.5,160,-170,160,397.5,SBD
1,Myrlande Kane,,F,QC,Juniors,Raw,118.72,84+,-157.5,160,-177.5,160,-85,85,-95,85,167.5,-180,180,180,425,SBD
DQ,Maura Howden,,F,AB,Juniors,Raw,102.73,84+,182.5,190,-195,190,-97.5,-102.5,-102.5,,,,,,,SBD
1,Aurélie Nguyen,,F,QC,Open,Raw,45.9,47,122.5,-132.5,132.5,132.5,77.5,82.5,83,83,165,175,-182.5,175,390.5,SBD
2,Denise Loraine Sopena,,F,BC,Open,Raw,46.48,47,115,125,130,130,55,60,62.5,62.5,145,155,160,160,352.5,SBD
3,Caitlin Lim,,F,BC,Open,Raw,46.53,47,92.5,-102.5,-102.5,92.5,42.5,47.5,-52.5,47.5,125,137.5,140,140,280,SBD
2,Amélie Picher-Plante,,F,QC,Open,Raw,51.47,52,137.5,145,150,150,77.5,80,82.5,82.5,175,-183.5,-183.5,175,407.5,SBD
1,Marie Jenevieve Joaquin,,F,BC,Open,Raw,51.14,52,145,150,155,155,80,82.5,85,85,167.5,-175,-175,167.5,407.5,SBD
3,Bindi Mehta,,F,AB,Open,Raw,51.97,52,130,137.5,142.5,142.5,80,87.5,-90,87.5,160,170,-180,170,400,SBD
4,Catherine Gagné,,F,QC,Open,Raw,50.32,52,135,145,152.5,152.5,70,75,-82.5,75,165,172.5,-180,172.5,400,SBD
5,Simone Lai,,F,ON,Open,Raw,49.71,52,132.5,137.5,140,140,70,75,-80,75,142.5,150,157.5,157.5,372.5,SBD
6,Catherine Nguyen,,F,BC,Open,Raw,51.14,52,120,122.5,-127.5,122.5,75,77.5,80,80,150,157.5,165,165,367.5,SBD
7,Lily Markovski,,F,ON,Open,Raw,48.88,52,102.5,107.5,-110,107.5,50,55,57.5,57.5,137.5,145,-150,145,310,SBD
8,Madeleine Diaz,,F,BC,Open,Raw,51.84,52,85,92.5,97.5,97.5,57.5,-60,62.5,62.5,130,135,140,140,300,SBD
1,Emma Zilberman-Vegas,,F,ON,Open,Raw,56.51,57,-150,155,-157.5,155,77.5,82.5,85,85,170,-177.5,177.5,177.5,417.5,SBD
2,Kayla Casey,,F,ON,Open,Raw,55.98,57,142.5,147.5,152.5,152.5,87.5,90,92.5,92.5,157.5,165,167.5,167.5,412.5,SBD
3,Andrea Stothard,,F,BC,Open,Raw,56.36,57,125,132.5,137.5,137.5,77.5,80,85,85,155,160,170,170,392.5,SBD
4,Fiona Chen,,F,BC,Open,Raw,55.98,57,132.5,137.5,-142.5,137.5,72.5,77.5,-82.5,77.5,167.5,175,-180,175,390,SBD
5,Tu Le #1,,F,BC,Open,Raw,56.19,57,-137.5,147.5,155,155,65,67.5,70,70,150,162.5,-170,162.5,387.5,SBD
6,Hannah Southwood,,F,BC,Open,Raw,56.23,57,-125,127.5,132.5,132.5,80,-85,85,85,150,160,-165,160,377.5,SBD
7,Denise Busayong,,F,BC,Open,Raw,56.16,57,-125,125,-135,125,67.5,72.5,-75,72.5,175,180,-185,180,377.5,SBD
8,Neeki Motabar,,F,ON,Open,Raw,56.7,57,127.5,137.5,142.5,142.5,75,77.5,80,80,145,-152.5,152.5,152.5,375,SBD
9,Angelika Ballesteros,,F,MB,Open,Raw,56.63,57,110,115,120,120,65,70,-72.5,70,150,160,-170,160,350,SBD
10,Pei Chen,,F,BC,Open,Raw,55.95,57,117.5,125,127.5,127.5,62.5,65,-67.5,65,140,147.5,155,155,347.5,SBD
11,Danielle Gear,,F,NL,Open,Raw,55.99,57,105,112.5,-115,112.5,-70,72.5,-77.5,72.5,140,147.5,150,150,335,SBD
12,Breanne Cropley,,F,AB,Open,Raw,55.97,57,102.5,110,115,115,62.5,67.5,-70,67.5,135,145,-150,145,327.5,SBD
13,Valerie Fournier,,F,QC,Open,Raw,56.07,57,112.5,127.5,130,130,57.5,65,-67.5,65,127.5,,,127.5,322.5,SBD
14,Carla Angela Rasing,,F,BC,Open,Raw,56.95,57,112.5,115,-122.5,115,62.5,67.5,70,70,130,135,-145,135,320,SBD
15,Megan Davis,,F,ON,Open,Raw,56.88,57,100,105,107.5,107.5,62.5,65,67.5,67.5,-130,135,140,140,315,SBD
1,Emily zur Linden,,F,ON,Open,Raw,61.42,63,165,170,175,175,95,100,-102.5,100,182.5,190,197.5,197.5,472.5,SBD
2,Nicola Paviglianiti,,F,ON,Open,Raw,60.89,63,170,175,180,180,87.5,92.5,-97.5,92.5,175,187.5,-195,187.5,460,SBD
3,Cloé St-Hilaire,,F,QC,Open,Raw,62.96,63,157.5,167.5,175,175,85,90,95,95,-167.5,167.5,177.5,177.5,447.5,SBD
4,Serena DeSantis,,F,ON,Open,Raw,61.98,63,157.5,162.5,165,165,82.5,-87.5,-87.5,82.5,177.5,185,-190,185,432.5,SBD
5,Yordanos Tessema,,F,ON,Open,Raw,62.23,63,125,132.5,137.5,137.5,80,82.5,-85,82.5,190,200,-205.5,200,420,SBD
6,Roselle Mary S Lucero,,F,ON,Open,Raw,62.68,63,140,147.5,152.5,152.5,75,80,82.5,82.5,152.5,162.5,170,170,405,SBD
7,Diana Foxall,,F,BC,Open,Raw,62.17,63,120,127.5,132.5,132.5,80,85,,85,170,177.5,185,185,402.5,SBD
8,Allison Shaver,,F,ON,Open,Raw,61.93,63,140,147.5,152.5,152.5,70,75,-77.5,75,165,175,-180,175,402.5,SBD
9,Sophie Desroches,,F,QC,Open,Raw,61.84,63,140,147.5,152.5,152.5,92.5,97.5,102.5,102.5,137.5,147.5,-155,147.5,402.5,SBD
10,Shannon Huff,,F,BC,Open,Raw,62.47,63,142.5,152.5,-160,152.5,80,85,87.5,87.5,145,155,160,160,400,SBD
11,Mackenzie Rose,,F,NL,Open,Raw,62.35,63,150,157.5,165,165,80,-85,-85,80,155,-162.5,-162.5,155,400,SBD
12,Myriam Ravignat,,F,QC,Open,Raw,61.98,63,127.5,135,-142.5,135,70,75,-77.5,75,160,-167.5,167.5,167.5,377.5,SBD
13,Emily Stearns,,F,AB,Open,Raw,61.38,63,125,130,-135,130,77.5,82.5,-85,82.5,147.5,155,160,160,372.5,SBD
14,Vanessa Choy,,F,AB,Open,Raw,61.54,63,127.5,-137.5,140,140,62.5,65,67.5,67.5,132.5,145,150,150,357.5,SBD
15,Laura Evans,,F,BC,Open,Raw,62.55,63,107.5,117.5,125,125,70,75,-80,75,135,145,-152.5,145,345,SBD
16,Yiqian Zhou,,F,BC,Open,Raw,60.97,63,125,130,-135,130,60,62.5,65,65,135,142.5,-152.5,142.5,337.5,SBD
DQ,Abigail Hall,,F,AB,Open,Raw,62.37,63,132.5,140,-145,140,-85,-85,-85,,,,,,,SBD
1,Christine Castro,,F,ON,Open,Raw,68.85,69,167.5,-172.5,-175,167.5,87.5,92.5,95,95,187.5,197.5,205,205,467.5,SBD
2,Shannon Mutch,,F,ON,Open,Raw,68.48,69,170,-177.5,177.5,177.5,95,100,-102.5,100,172.5,182.5,187.5,187.5,465,SBD
3,Julie-Anne Pelletier-Grenier,,F,QC,Open,Raw,67.89,69,155,162.5,-165,162.5,87.5,95,-100,95,175,187.5,195,195,452.5,SBD
4,Lisa Kitagawa,,F,BC,Open,Raw,68.57,69,150,160,167.5,167.5,-80,80,82.5,82.5,185,197.5,-205,197.5,447.5,SBD
5,Brittany Brecht,,F,SK,Open,Raw,68.27,69,150,-155,155,155,70,-72.5,-72.5,70,185,-195,-195,185,410,SBD
6,Kiley Morrissey,,F,AB,Open,Raw,68.36,69,145,-155,155,155,87.5,92.5,-97.5,92.5,150,160,-167.5,160,407.5,SBD
7,Amy Ng,,F,ON,Open,Raw,67.09,69,125,132.5,137.5,137.5,75,80,82.5,82.5,165,172.5,180,180,400,SBD
8,Jennifer Theron,,F,ON,Open,Raw,67.71,69,130,137.5,145,145,75,80,85,85,150,160,170,170,400,SBD
9,Emely Castro-Arana,,F,AB,Open,Raw,68.23,69,137.5,145,150,150,65,72.5,-75,72.5,155,165,172.5,172.5,395,SBD
10,Chubing Liang,,F,BC,Open,Raw,66.67,69,125,130,137.5,137.5,67.5,72.5,75,75,160,170,180,180,392.5,SBD
11,Romane Carbonneau,,F,QC,Open,Raw,67.98,69,127.5,135,140,140,-75,75,-80,75,147.5,157.5,165,165,380,SBD
12,Audrey Carmela Estacio,,F,BC,Open,Raw,67.55,69,130,137.5,-140,137.5,70,75,-82.5,75,155,165,-175,165,377.5,SBD
13,Natasha Kozak,,F,BC,Open,Raw,68.08,69,125,132.5,137.5,137.5,67.5,-72.5,-72.5,67.5,157.5,167.5,-172.5,167.5,372.5,SBD
14,Jasmine Bartlett,,F,BC,Open,Raw,68.44,69,125,132.5,-135,132.5,-67.5,67.5,-70,67.5,160,167.5,-172.5,167.5,367.5,SBD
15,Samantha Fung,,F,AB,Open,Raw,68.27,69,120,130,140,140,-82.5,82.5,90,90,120,130,-140,130,360,SBD
1,Rashenna Grzybowski,,F,SK,Open,Raw,75.31,76,175,182.5,-187.5,182.5,92.5,97.5,-100,97.5,190,200,205,205,485,SBD
2,Madison Arnold,,F,BC,Open,Raw,72.32,76,165,172.5,-180,172.5,90,95,97.5,97.5,187.5,197.5,-207.5,197.5,467.5,SBD
3,Emily Wiggins,,F,BC,Open,Raw,71.24,76,140,150,155,155,105,113,116,116,172.5,185,195,195,466,SBD
4,Janelle Martens,,F,AB,Open,Raw,75.64,76,170,-177.5,185,185,87.5,92.5,-97.5,92.5,175,187.5,-200,187.5,465,SBD
5,Lily Riggs,,F,BC,Open,Raw,75.69,76,160,167.5,172.5,172.5,80,87.5,90,90,175,185,190,190,452.5,SBD
6,Jennifer Luther-Thomas,,F,BC,Open,Raw,75.81,76,172.5,180,185,185,80,85,-87.5,85,152.5,165,-175,165,435,SBD
7,Lydia North,,F,ON,Open,Raw,75.74,76,130,137.5,145,145,92.5,97.5,-100,97.5,145,152.5,-160,152.5,395,SBD
8,Kaitlin Armour,,F,NB,Open,Raw,75.27,76,145,155,-162.5,155,72.5,-77.5,-77.5,72.5,150,162.5,-170,162.5,390,SBD
9,Shadie Bourget,,F,BC,Open,Raw,75.19,76,125,130,-135,130,80,-85,-85,80,150,160,-167.5,160,370,SBD
1,Jessica Buettner,,F,SK,Open,Raw,77.19,84,197.5,205,209,209,95,97.5,100,100,240,250,,250,559,SBD
2,Danielle Philibert,,F,NB,Open,Raw,80.69,84,187.5,200,-205,200,112.5,120,125,125,195,210,217.5,217.5,542.5,SBD
3,Olivia St-Hilaire,,F,QC,Open,Raw,83.82,84,175,182.5,187.5,187.5,122.5,127.5,131,131,190,202.5,212.5,212.5,531,SBD
4,Rhaea Stinn,,F,SK,Open,Raw,83.76,84,175,190,200,200,112.5,120,-125,120,175,190,195,195,515,SBD
5,Marianne Groleau,,F,QC,Open,Raw,83.47,84,190,197.5,202.5,202.5,85,90,95,95,195,205,-210,205,502.5,SBD
6,Sophie Lavoie,,F,QC,Open,Raw,82.85,84,175,182.5,-185,182.5,112.5,117.5,-120,117.5,175,-185,185,185,485,SBD
7,Emmanuelle Tassy-Bunyan,,F,QC,Open,Raw,82.02,84,162.5,-172.5,-172.5,162.5,85,-90,-90,85,205,220,-230,220,467.5,SBD
8,Tammy Drover,,F,BC,Open,Raw,82.41,84,-160,165,-170,165,87.5,90,92.5,92.5,167.5,177.5,182.5,182.5,440,SBD
9,Nicole Lorenz,,F,QC,Open,Raw,82.95,84,152.5,160,165,165,75,-80,-80,75,185,192.5,-200,192.5,432.5,SBD
10,Melissa Kasper,,F,BC,Open,Raw,81.75,84,160,167.5,-172.5,167.5,70,75,77.5,77.5,175,182.5,187.5,187.5,432.5,SBD
11,Isabelle Aube-Peterkin,,F,ON,Open,Raw,83.35,84,140,-147.5,152.5,152.5,85,90,95,95,160,170,180,180,427.5,SBD
12,Victoria Iasenzaniro,,F,AB,Open,Raw,83.67,84,150,-160,-160,150,75,-82.5,82.5,82.5,160,170,-175,170,402.5,SBD
1,Brittany Schlater,,F,ON,Open,Raw,123.28,84+,230,250,260,260,137.5,145,151.5,151.5,230,247.5,250.5,250.5,662,SBD
2,Mackenzie Lee,,F,BC,Open,Raw,114.82,84+,220,240,-255.5,240,135,145,-150.5,145,215,230,240,240,625,SBD
3,Anne Andres,,F,AB,Open,Raw,115.03,84+,185,195,200,200,120,125,-127.5,125,227.5,240,-250,240,565,SBD
4,Aileen Bishop,,F,AB,Open,Raw,108.55,84+,187.5,197.5,205,205,90,95,97.5,97.5,192.5,205,-212.5,205,507.5,SBD
5,Judy Ann Ruelland,,F,QC,Open,Raw,158.87,84+,192.5,202.5,-210,202.5,112.5,120,-125,120,-165,165,175,175,497.5,SBD
6,Ramanjot Ghuman,,F,BC,Open,Raw,91.44,84+,155,165,180,180,87.5,95,100,100,180,190,202.5,202.5,482.5,SBD
7,Briana Tarricone,,F,QC,Open,Raw,101.17,84+,175,182.5,187.5,187.5,87.5,-92.5,92.5,92.5,185,195,-202.5,195,475,SBD
8,Leah Gregory,,F,NL,Open,Raw,98.43,84+,180,187.5,192.5,192.5,80,87.5,92.5,92.5,160,170,-180,170,455,SBD
9,Nicole Foster,,F,ON,Open,Raw,114.71,84+,152.5,157.5,162.5,162.5,82.5,87.5,90,90,182.5,185,190,190,442.5,SBD
1,Joanna Rieber,,F,ON,Masters 1,Raw,51.68,52,132.5,137.5,142.5,142.5,90,95,-99,95,155,160,163,163,400.5,SBD
1,Denise Royer,,F,AB,Masters 1,Raw,56.66,57,105,112.5,117.5,117.5,70,75,-80,75,117.5,122.5,130,130,322.5,SBD
1,Morayo Akinsanya,,F,ON,Masters 1,Raw,60.69,63,130,132.5,-143.5,132.5,67.5,75,77.5,77.5,169.5,177.5,182.5,182.5,392.5,SBD
2,Janie Jacobucci,,F,MB,Masters 1,Raw,60.41,63,125,135,137.5,137.5,75,77.5,-80,77.5,165,173.5,-177.5,173.5,388.5,SBD
3,Michelle Vandegriend,,F,AB,Masters 1,Raw,60.64,63,90,105,112.5,112.5,65,72.5,77.5,77.5,145,160,170,170,360,SBD
4,Nicole Hart #1,,F,BC,Masters 1,Raw,61.49,63,107.5,112.5,117.5,117.5,55,60,62.5,62.5,122.5,132.5,137.5,137.5,317.5,SBD
1,Jeri Munro,,F,PE,Masters 1,Raw,67.16,69,120,130,-135,130,65,67.5,-70,67.5,152.5,162.5,167.5,167.5,365,SBD
2,Amelie Mayo,,F,BC,Masters 1,Raw,67.67,69,100,110,112.5,112.5,60,62.5,-65,62.5,172.5,182.5,188,188,363,SBD
3,Tara Bohune,,F,BC,Masters 1,Raw,66.61,69,100,105,110,110,65,-70,-70,65,170,175,177.5,177.5,352.5,SBD
4,Glynnis Powell,,F,NS,Masters 1,Raw,65.56,69,-115,115,-120,115,55,-60,-60,55,130,137.5,-142.5,137.5,307.5,SBD
1,Tracy Arias,,F,ON,Masters 1,Raw,74.49,76,150,157.5,162.5,162.5,57.5,62.5,65,65,180,187.5,195,195,422.5,SBD
2,Emmannuelle Archambault,,F,SK,Masters 1,Raw,74.5,76,125,130,137.5,137.5,90,95,96.5,96.5,170,182.5,187.5,187.5,421.5,SBD
3,Jennifer Kwan,,F,AB,Masters 1,Raw,73.37,76,125,132.5,137.5,137.5,62.5,67.5,-72.5,67.5,142.5,152.5,-160,152.5,357.5,SBD
4,Renae Witzaney,,F,BC,Masters 1,Raw,74.21,76,110,120,127.5,127.5,65,70,72.5,72.5,115,125,130,130,330,SBD
5,Carmela Smythe,,F,BC,Masters 1,Raw,73.05,76,90,95,100,100,55,60,-65,60,110,117.5,122.5,122.5,282.5,SBD
1,Lily Chumbley,,F,ON,Masters 1,Raw,82.03,84,172.5,180,-182.5,180,85,87.5,-90,87.5,160,170,175,175,442.5,SBD
2,Carole Vachon,,F,AB,Masters 1,Raw,81.79,84,142.5,152.5,160,160,82.5,87.5,90,90,172.5,187.5,-192.5,187.5,437.5,SBD
3,Morgan Haupt,,F,BC,Masters 1,Raw,83.32,84,125,130,-135,130,70,75,-77.5,75,142.5,152.5,160,160,365,SBD
1,Sousanh Chanthalangsy,,F,AB,Masters 1,Raw,121.36,84+,200,207.5,210,210,102.5,105,-107.5,105,195,202.5,205,205,520,SBD
2,April Hutchinson,,F,ON,Masters 1,Raw,105.61,84+,157.5,-165,165,165,80,85,-87.5,85,200,210,-217.5,210,460,SBD
3,Janine Hebert,,F,AB,Masters 1,Raw,125.04,84+,150,155,157.5,157.5,90,95,100,100,180,-190,-190,180,437.5,SBD
4,Barbara-Ann Kubb,,F,BC,Masters 1,Raw,123.53,84+,155,167.5,175,175,80,85,87.5,87.5,152.5,165,170,170,432.5,SBD
5,Kimberley Hess,,F,BC,Masters 1,Raw,107.49,84+,125,135,145,145,75,80,-85,80,165,175,182.5,182.5,407.5,SBD
6,Mary-Ann Middleton,,F,BC,Masters 1,Raw,91.09,84+,115,125,130,130,50,57.5,62.5,62.5,127.5,135,142.5,142.5,335,SBD
1,Janique Lafond,,F,AB,Masters 2,Raw,51.28,52,100,107.5,111.5,111.5,50,52.5,-55,52.5,120,-122.5,122.5,122.5,286.5,SBD
1,Jody McPeak,,F,AB,Masters 2,Raw,56.06,57,117.5,-122.5,-122.5,117.5,60,65,67.5,67.5,132.5,140,145,145,330,SBD
2,Esther Gartshore,,F,ON,Masters 2,Raw,53.92,57,102.5,107.5,112.5,112.5,55,60,-62.5,60,130,137.5,142.5,142.5,315,SBD
3,Shauna Hammer,,F,SK,Masters 2,Raw,56,57,102.5,107.5,112.5,112.5,57.5,62.5,65,65,120,127.5,132.5,132.5,310,SBD
4,Wendy Yamazaki,,F,BC,Masters 2,Raw,55.97,57,72.5,77.5,80,80,35,40,45,45,110,117.5,-122.5,117.5,242.5,SBD
5,Meghan O'Connell,,F,BC,Masters 2,Raw,53.27,57,50,52.5,55,55,40,42.5,-45,42.5,90,97.5,-107.5,97.5,195,SBD
1,Neilane Mayhew,,F,BC,Masters 2,Raw,62.75,63,95,102.5,107.5,107.5,45,47.5,-50,47.5,125,130,132.5,132.5,287.5,SBD
1,Holly Lasante,,F,ON,Masters 2,Raw,67.11,69,127.5,135,141,141,65,67.5,-70,67.5,152.5,162.5,169,169,377.5,SBD
2,Candace Daher,,F,MB,Masters 2,Raw,65.63,69,105,-112.5,115,115,55,60,-65,60,140,150,155,155,330,SBD
3,Cydnee Seneviratne,,F,AB,Masters 2,Raw,68.86,69,-92.5,92.5,95,95,67.5,73,-75,73,142.5,152.5,157.5,157.5,325.5,SBD
4,Christine Nguyen,,F,ON,Masters 2,Raw,64.97,69,-122.5,122.5,130,130,50,-55,-55,50,137.5,142.5,-150,142.5,322.5,SBD
5,Sandra Flowerday-Payne,,F,ON,Masters 2,Raw,67.65,69,97.5,102.5,107.5,107.5,62.5,67.5,-72.5,67.5,110,117.5,122.5,122.5,297.5,SBD
6,Kathleen Thomson,,F,BC,Masters 2,Raw,67.57,69,102.5,110,-115,110,47.5,50,52.5,52.5,122.5,127.5,130,130,292.5,SBD
DQ,Chantal Richard,,F,AB,Masters 2,Raw,68.4,69,80,85,95,95,-47.5,-47.5,-47.5,,,,,,,SBD
1,Sylvia Atkinson,,F,ON,Masters 2,Raw,71.92,76,165,175,178,178,70,75,77.5,77.5,177.5,187.5,-198,187.5,443,SBD
2,Tracy Wise,,F,ON,Masters 2,Raw,74.23,76,125,132.5,137.5,137.5,77.5,-82.5,-82.5,77.5,140,147.5,155,155,370,SBD
3,Janet Loesel Sitar,,F,MB,Masters 2,Raw,74.79,76,102.5,110,-115,110,75,-77.5,-77.5,75,140,147.5,-155,147.5,332.5,SBD
4,Jennifer Evans,,F,ON,Masters 2,Raw,75.66,76,90,97.5,102.5,102.5,57.5,62.5,-65,62.5,120,-127.5,127.5,127.5,292.5,SBD
1,Katherine Lawrence,,F,BC,Masters 2,Raw,83.34,84,140,150,-153,150,67.5,-72.5,-72.5,67.5,152.5,162.5,-170,162.5,380,SBD
2,Jillian Sproul,,F,PE,Masters 2,Raw,77.29,84,110,117.5,122.5,122.5,62.5,-67.5,67.5,67.5,125,-137.5,-137.5,125,315,SBD
1,Lori Welsh,,F,NL,Masters 2,Raw,101.03,84+,145,155,162.5,162.5,90,95,97.5,97.5,155,172.5,182.5,182.5,442.5,SBD
2,Lyubov Minich,,F,ON,Masters 2,Raw,125.77,84+,142.5,150,152.5,152.5,77.5,80,-82.5,80,142.5,147.5,152.5,152.5,385,SBD
3,Donna Bodnar,,F,SK,Masters 2,Raw,110.94,84+,122.5,137.5,150,150,62.5,65,-67.5,65,140,152.5,-167.5,152.5,367.5,SBD
4,Brenda Billings,,F,MB,Masters 2,Raw,104.77,84+,-132.5,132.5,-135,132.5,60,62.5,-65,62.5,127.5,130,-132.5,130,325,SBD
1,Monica Ma,,F,BC,Masters 3,Raw,42.62,47,60,-65,65,65,27.5,30,-32.5,30,95,-100,-102.5,95,190,SBD
1,Heidi Schraft,,F,ON,Masters 3,Raw,51.02,52,60,65,67.5,67.5,47.5,52.5,-55,52.5,90,95,-100,95,215,SBD
1,Arlene van Diepen,,F,PE,Masters 3,Raw,61.49,63,87.5,95,97.5,97.5,50,52.5,-55,52.5,127.5,137.5,140,140,290,SBD
2,Kelly Wharton,,F,BC,Masters 3,Raw,60.98,63,100,107.5,-110.5,107.5,50,55,57.5,57.5,115,122.5,-127.5,122.5,287.5,SBD
3,Katherine Sartor,,F,BC,Masters 3,Raw,62.45,63,84.5,92.5,-102.5,92.5,47.5,57.5,-60,57.5,93.5,105,117.5,117.5,267.5,SBD
1,Gail-Ann Breese,,F,MB,Masters 3,Raw,65.26,69,100,105,-112.5,105,57.5,-62.5,-62.5,57.5,142.5,150,157.5,157.5,320,SBD
2,Madeline Payne,,F,BC,Masters 3,Raw,64.56,69,77.5,80,-90,80,35,37.5,40,40,90,95,-100,95,215,SBD
1,Pamela King,,F,ON,Masters 3,Raw,75.08,76,107.5,112.5,116,116,70,-73,73,73,122.5,130.5,131.5,131.5,320.5,SBD
2,Louise Beard,,F,ON,Masters 3,Raw,74.01,76,77.5,80,-82.5,80,55,57.5,60,60,117.5,122.5,125,125,265,SBD
3,Mary Stephanie Needham,,F,BC,Masters 3,Raw,75.45,76,70,72.5,80,80,52.5,-57.5,57.5,57.5,112.5,117.5,125,125,262.5,SBD
4,Joanne Lindemulder,,F,BC,Masters 3,Raw,72.18,76,80,87.5,92.5,92.5,45,-47.5,-47.5,45,105,115,120,120,257.5,SBD
1,Sandra Nase,,F,SK,Masters 3,Raw,100.92,84+,90,95,102.5,102.5,52.5,55,-57.5,55,140,147.5,150,150,307.5,SBD
2,Susan Bonneau,,F,NS,Masters 3,Raw,96.75,84+,92.5,102.5,110,110,47.5,55,60,60,100,112.5,120,120,290,SBD
3,Margot Croft,,F,BC,Masters 3,Raw,95.96,84+,100,-107.5,-107.5,100,57.5,60,-62.5,60,127.5,-137.5,-140,127.5,287.5,SBD
1,Janet Warne,,F,QC,Masters 4,Raw,55.44,57,75,80,82.5,82.5,32.5,35,37.5,37.5,85,90,95,95,215,SBD
1,Sharlene Brunjes,,F,BC,Masters 4,Raw,60.52,63,82.5,87.5,92.5,92.5,40,42.5,,42.5,115,122.5,126,126,261,SBD
1,Sylvia Gaucher,,F,AB,Masters 4,Raw,80.13,84,97.5,102.5,106.5,106.5,52.5,-55.5,-55.5,52.5,125.5,131,136.5,136.5,295.5,SBD
1,Leyton Feargrieve,,M,NS,Sub-Juniors,Raw,65.87,66,180,185,-187.5,185,110,-115,-115,110,205,215,222.5,222.5,517.5,SBD
2,Ruben Guevara,,M,AB,Sub-Juniors,Raw,65.53,66,155,165,-167.5,165,92.5,97.5,-102.5,97.5,195,205,-210,205,467.5,SBD
1,Luc Dahlman,,M,AB,Sub-Juniors,Raw,72.95,74,190,200,-210,200,127.5,132.5,135,135,220,230,240,240,575,SBD
2,Roger Kong,,M,BC,Sub-Juniors,Raw,71.58,74,167.5,177.5,185,185,115,122.5,130,130,187.5,197.5,205,205,520,SBD
1,Pasha Farajollahi,,M,BC,Sub-Juniors,Raw,81.36,83,190,200,207.5,207.5,125,135,137.5,137.5,205,-212.5,-212.5,205,550,SBD
1,Alex Storness-Bliss,,M,BC,Sub-Juniors,Raw,91.23,93,175,192.5,-202.5,192.5,87.5,92.5,-95,92.5,210,217.5,227.5,227.5,512.5,SBD
2,Dixon Eckersley,,M,BC,Sub-Juniors,Raw,85.42,93,172.5,182.5,-192.5,182.5,102.5,110,-117.5,110,200,210,217.5,217.5,510,SBD
3,Xavier Cheryba,,M,AB,Sub-Juniors,Raw,92.74,93,160,170,180,180,112.5,120,127.5,127.5,160,180,-185,180,487.5,SBD
1,Rocky Wang,,M,ON,Sub-Juniors,Raw,103.89,105,220,227.5,235,235,150,-157.5,-157.5,150,-275,275,-301,275,660,SBD
1,Joshua Savage,,M,BC,Sub-Juniors,Raw,110.07,120,195,205,210,210,107.5,117.5,122.5,122.5,205,215,-225,215,547.5,SBD
1,Egor Lutcenko,,M,QC,Sub-Juniors,Raw,126.44,120+,200,210,225,225,130,142.5,-150,142.5,160,170,182.5,182.5,550,SBD
1,Julian Mok,,M,BC,Juniors,Raw,58.55,59,175,182.5,187.5,187.5,92.5,102.5,-105,102.5,215,227.5,232.5,232.5,522.5,SBD
2,Jake Edralin,,M,ON,Juniors,Raw,57.97,59,165,175,-182.5,175,110,117.5,-120,117.5,210,217.5,227.5,227.5,520,SBD
3,Patrick Encarnacion,,M,MB,Juniors,Raw,58.87,59,157.5,165,-170,165,97.5,-102.5,-102.5,97.5,195,210,225,225,487.5,SBD
1,Tuan-Hien Tran,,M,QC,Juniors,Raw,65.5,66,175,190,200,200,105,115,-122.5,115,-267.5,267.5,280,280,595,SBD
2,Jaycel Esteron,,M,ON,Juniors,Raw,65.22,66,-205,210,215,215,132.5,-137.5,-137.5,132.5,232.5,245,-252.5,245,592.5,SBD
3,John Jaholaide Ballesteros,,M,AB,Juniors,Raw,65.03,66,202.5,212.5,217.5,217.5,120,127.5,135,135,222.5,235,-242.5,235,587.5,SBD
4,Mathis Jolicoeur,,M,QC,Juniors,Raw,65.28,66,185,-192.5,192.5,192.5,132.5,137.5,-142.5,137.5,245,255,-260,255,585,SBD
5,Haruki Takeuchi,,M,BC,Juniors,Raw,63.82,66,195,207.5,212.5,212.5,122.5,130,132.5,132.5,-205,205,215,215,560,SBD
6,Kaeden Ottenbreit,,M,BC,Juniors,Raw,64.95,66,150,162.5,170,170,120,-125,-125,120,185,202.5,-215,202.5,492.5,SBD
1,Kian Terrado,,M,ON,Juniors,Raw,71.88,74,245,265,268,268,155,-160,-160,155,270,290,302.5,302.5,725.5,SBD
2,Kostyantyn Sosnyk,,M,BC,Juniors,Raw,73.98,74,230,242.5,-252.5,242.5,155,162.5,165,165,245,255,265,265,672.5,SBD
3,Keven Truong,,M,BC,Juniors,Raw,72.46,74,222.5,235,240,240,120,130,132.5,132.5,235,247.5,-255,247.5,620,SBD
4,Alexandre Champoux-ferron,,M,QC,Juniors,Raw,73.15,74,220,-227.5,-232.5,220,120,125,130,130,255,267.5,-275,267.5,617.5,SBD
5,Nathan Nguyen #1,,M,AB,Juniors,Raw,73.07,74,207.5,217.5,-222.5,217.5,120,125,127.5,127.5,212.5,222.5,230,230,575,SBD
6,Ryan Mood,,M,ON,Juniors,Raw,72.56,74,187.5,197.5,205,205,110,115,-120,115,217.5,227.5,237.5,237.5,557.5,SBD
7,Thomas Canning,,M,NS,Juniors,Raw,73.65,74,175,190,202.5,202.5,105,112.5,117.5,117.5,222.5,235,-240,235,555,SBD
8,Nicolas Parra,,M,AB,Juniors,Raw,72.66,74,182.5,-190,195,195,107.5,115,117.5,117.5,215,230,240,240,552.5,SBD
1,Matthew Kearney,,M,NL,Juniors,Raw,82.11,83,235,245,255,255,172.5,180,187.5,187.5,272.5,287.5,302.5,302.5,745,SBD
2,Logan Heffron,,M,AB,Juniors,Raw,80.12,83,255,270,-275,270,145,150,155,155,265,280,285,285,710,SBD
3,Timothy Zelensky,,M,SK,Juniors,Raw,80.78,83,220,230,240,240,162.5,170,172.5,172.5,270,-285,295,295,707.5,SBD
4,Brock Allen #1,,M,ON,Juniors,Raw,81.93,83,235,245,250,250,165,172.5,-177.5,172.5,265,275,282.5,282.5,705,SBD
5,Brandon Logan,,M,SK,Juniors,Raw,82.08,83,222.5,235,242.5,242.5,157.5,165,-167.5,165,250,265,277.5,277.5,685,SBD
6,Tung Hsuan Yen,,M,BC,Juniors,Raw,82.7,83,205,215,222.5,222.5,180,185,190,190,245,260,-272.5,260,672.5,SBD
7,Lucas Steele,,M,BC,Juniors,Raw,80.9,83,240,250,-255,250,-135,142.5,147.5,147.5,267.5,-277.5,-277.5,267.5,665,SBD
8,Derek Demmans,,M,ON,Juniors,Raw,81.83,83,227.5,237.5,245,245,142.5,150,-155,150,250,-265,265,265,660,SBD
9,Matthew Laroche,,M,QC,Juniors,Raw,81.15,83,217.5,230,-235,230,130,135,-137.5,135,270,285,-295,285,650,SBD
10,Nikolas Scheiwiller,,M,AB,Juniors,Raw,82.6,83,227.5,237.5,-242.5,237.5,130,135,-140,135,262.5,275,-277.5,275,647.5,SBD
11,Claude-Alexandre Guimont,,M,QC,Juniors,Raw,79.37,83,215,230,242.5,242.5,110,117.5,125,125,247.5,262.5,275,275,642.5,SBD
12,Vincent Lo,,M,BC,Juniors,Raw,81.71,83,220,-230,-230,220,155,-162.5,-162.5,155,245,255,265,265,640,SBD
13,Brandon Mercer #1,,M,BC,Juniors,Raw,82.98,83,215,227.5,237.5,237.5,137.5,142.5,147.5,147.5,245,-260,-260,245,630,SBD
14,Quinn Baxter,,M,ON,Juniors,Raw,74.95,83,235,242.5,-250,242.5,135,140,-142.5,140,230,237.5,242.5,242.5,625,SBD
15,Lingxiao Chen,,M,BC,Juniors,Raw,82.49,83,225,242.5,252.5,252.5,112.5,117.5,122.5,122.5,227.5,247.5,-262.5,247.5,622.5,SBD
16,Sebastian Camargos,,M,ON,Juniors,Raw,82,83,210,220,227.5,227.5,127.5,132.5,-137.5,132.5,245,260,-272.5,260,620,SBD
17,Ian Tibbs,,M,ON,Juniors,Raw,81.16,83,207.5,220,227.5,227.5,140,145,-147.5,145,245,-262.5,-262.5,245,617.5,SBD
18,Lucas Fraser,,M,NS,Juniors,Raw,82.5,83,215,227.5,235,235,125,135,142.5,142.5,210,225,237.5,237.5,615,SBD
19,Justin Flores,,M,AB,Juniors,Raw,82.18,83,215,222.5,227.5,227.5,130,135,-140,135,245,252.5,-257.5,252.5,615,SBD
20,Zachary Dubreuil,,M,QC,Juniors,Raw,82.13,83,220,230,-235,230,117.5,122.5,125,125,245,260,-275,260,615,SBD
21,Danny L Wei,,M,BC,Juniors,Raw,82.71,83,195,-205,-205,195,165,172.5,-180,172.5,225,-245,-245,225,592.5,SBD
22,Bassil Issa,,M,ON,Juniors,Raw,81.85,83,212.5,-220,227.5,227.5,132.5,140,-145,140,220,-230,-230,220,587.5,SBD
23,Jeffrey Choi,,M,BC,Juniors,Raw,80.03,83,190,200,-202.5,200,135,142.5,-150,142.5,225,240,-250,240,582.5,SBD
24,Andrew Brown #15,,M,NS,Juniors,Raw,80.5,83,202.5,-212.5,-212.5,202.5,142.5,-150,-150,142.5,225,235,-250,235,580,SBD
1,James Low,,M,QC,Juniors,Raw,91.73,93,270,290,300,300,177.5,187.5,-195,187.5,247.5,262.5,275,275,762.5,SBD
2,Johnathan Asselstine,,M,ON,Juniors,Raw,92.06,93,255,265,275,275,165,170,175,175,285,300,-315,300,750,SBD
3,Thomas Franco,,M,QC,Juniors,Raw,92.65,93,257.5,272.5,282.5,282.5,160,170,-180,170,260,280,287.5,287.5,740,SBD
4,John Ray Walls,,M,AB,Juniors,Raw,92.18,93,250,260,270,270,175,185,192.5,192.5,245,262.5,272.5,272.5,735,SBD
5,Nicolas Charbonneau,,M,QC,Juniors,Raw,92.77,93,255,267.5,-280,267.5,142.5,150,155,155,270,285,300,300,722.5,SBD
6,Qiming Fan,,M,BC,Juniors,Raw,90.99,93,227.5,247.5,255,255,152.5,162.5,170,170,235,255,270,270,695,SBD
7,Karlmyk Crisostomo,,M,BC,Juniors,Raw,89.79,93,250,-260,-260,250,160,165,170,170,250,260,-267.5,260,680,SBD
8,Mohanad Ibrahiem,,M,AB,Juniors,Raw,91.64,93,225,240,245,245,142.5,150,152.5,152.5,255,-275,275,275,672.5,SBD
9,Emmanuel Weber,,M,ON,Juniors,Raw,92.21,93,237.5,250,255,255,127.5,137.5,-147.5,137.5,252.5,267.5,-280,267.5,660,SBD
10,Christian Santos,,M,ON,Juniors,Raw,91.95,93,225,235,245,245,140,147.5,152.5,152.5,230,245,255,255,652.5,SBD
11,Dallas Reimer,,M,SK,Juniors,Raw,92.58,93,-217.5,225,235,235,140,147.5,152.5,152.5,237.5,247.5,260,260,647.5,SBD
12,Luc Renaud,,M,BC,Juniors,Raw,92.47,93,215,230,237.5,237.5,142.5,150,152.5,152.5,222.5,240,-247.5,240,630,SBD
13,Bamidele Egbeyemi,,M,SK,Juniors,Raw,91.88,93,210,222.5,-225,222.5,150,157.5,160,160,245,-255,-267.5,245,627.5,SBD
1,Thomas Johnston #5,,M,BC,Juniors,Raw,104.3,105,300,-310,310,310,160,165,170,170,315,332.5,-345,332.5,812.5,SBD
2,Ezeiel Amponsah,,M,AB,Juniors,Raw,104.98,105,270,290,-302.5,290,162.5,170,-172.5,170,302.5,325,-333,325,785,SBD
3,Andrew Drysdale,,M,ON,Juniors,Raw,103.69,105,275,290,-297.5,290,125,135,140,140,280,292.5,302.5,302.5,732.5,SBD
4,Braeden Wicht,,M,AB,Juniors,Raw,102.18,105,240,255,-265,255,175,185,190,190,262.5,275,-277.5,275,720,SBD
5,Daniel Fraulin,,M,ON,Juniors,Raw,103.88,105,235,247.5,-260,247.5,165,172.5,-177.5,172.5,260,272.5,280,280,700,SBD
6,Matthew Genge,,M,NL,Juniors,Raw,104.1,105,275,-285,285,285,150,155,157.5,157.5,230,245,255,255,697.5,SBD
7,Harvir Besal,,M,BC,Juniors,Raw,103.17,105,215,225,237.5,237.5,140,150,-155,150,270,285,-292.5,285,672.5,SBD
8,Noah Dupuis,,M,QC,Juniors,Raw,102.06,105,225,240,245,245,140,147.5,152.5,152.5,257.5,272.5,-277.5,272.5,670,SBD
1,Jérémy Vallerand,,M,QC,Juniors,Raw,117.8,120,320,337.5,-345,337.5,182.5,187.5,192.5,192.5,310,-330,330,330,860,SBD
2,Louis Latour,,M,BC,Juniors,Raw,115.69,120,262.5,277.5,285,285,172.5,182.5,187.5,187.5,295,310,317.5,317.5,790,SBD
3,Conor McLaughlin,,M,BC,Juniors,Raw,117.49,120,262.5,275,282.5,282.5,155,160,162.5,162.5,305,320,-330,320,765,SBD
4,Ethan Akerman,,M,ON,Juniors,Raw,117.49,120,265,277.5,-282.5,277.5,162.5,167.5,172.5,172.5,265,277.5,285,285,735,SBD
5,Ethan Joyce,,M,NL,Juniors,Raw,108.41,120,217.5,235,245,245,127.5,140,147.5,147.5,255,280,285,285,677.5,SBD
1,Alex Marriott,,M,NS,Juniors,Raw,128.86,120+,262.5,277.5,292.5,292.5,172.5,182.5,187.5,187.5,275,292.5,305,305,785,SBD
2,Samuel St-Pierre,,M,QC,Juniors,Raw,142.85,120+,267.5,282.5,292.5,292.5,170,180,182.5,182.5,262.5,275,285,285,760,SBD
3,Jacob Bisch,,M,ON,Juniors,Raw,150.92,120+,292.5,-307.5,-307.5,292.5,-187.5,187.5,192.5,192.5,230,245,252.5,252.5,737.5,SBD
4,Carsen Phillips,,M,BC,Juniors,Raw,132.96,120+,260,272.5,-277.5,272.5,165,172.5,177.5,177.5,260,272.5,280,280,730,SBD
5,Maxwell Kahler,,M,AB,Juniors,Raw,129.71,120+,255,272.5,285,285,165,175,180,180,260,-275,-275,260,725,SBD
6,John Paul Ferrer,,M,BC,Juniors,Raw,134.93,120+,245,255,260,260,152.5,162.5,-167.5,162.5,262.5,285,290,290,712.5,SBD
1,Julian Mok,,M,BC,Juniors,Raw,58.55,59,175,182.5,187.5,187.5,92.5,102.5,-105,102.5,215,227.5,232.5,232.5,522.5,SBD
2,Jake Edralin,,M,ON,Juniors,Raw,57.97,59,165,175,-182.5,175,110,117.5,-120,117.5,210,217.5,227.5,227.5,520,SBD
3,Patrick Encarnacion,,M,MB,Juniors,Raw,58.87,59,157.5,165,-170,165,97.5,-102.5,-102.5,97.5,195,210,225,225,487.5,SBD
1,Benjamin Yu,,M,BC,Open,Raw,57.92,59,175,180,-182.5,180,127.5,132.5,136,136,185,195,205,205,521,SBD
2,Andrew Villafuerte,,M,ON,Open,Raw,57.4,59,162.5,-167.5,-167.5,162.5,97.5,102.5,105,105,220,-232.5,-232.5,220,487.5,SBD
1,Derick Luu,,M,ON,Open,Raw,65.65,66,-182.5,187.5,197.5,197.5,142.5,150,-155,150,230,242.5,247.5,247.5,595,SBD
2,Alan Chung,,M,AB,Open,Raw,65.54,66,200,-205,-205,200,110,117.5,122.5,122.5,240,260,-272.5,260,582.5,SBD
3,Dickson Giang,,M,BC,Open,Raw,64.2,66,190,200,-210,200,125,135,145,145,235,-245,-250,235,580,SBD
4,Eldrick Padilla,,M,BC,Open,Raw,64.87,66,180,185,190,190,130,135,-137.5,135,227.5,232.5,-240,232.5,557.5,SBD
1,Mark Tobias,,M,ON,Open,Raw,73.96,74,265,275,280,280,145,152.5,155,155,265,280,287.5,287.5,722.5,SBD
2,Justin Quedado,,M,NS,Open,Raw,73.36,74,-220,230,240,240,152.5,160,162.5,162.5,282.5,300,-315.5,300,702.5,SBD
3,Olanrewaju Adeoye,,M,ON,Open,Raw,73.74,74,270,284,285.5,285.5,130,137.5,-140,137.5,275,-292.5,-292.5,275,698,SBD
4,Blake Barrett,,M,ON,Open,Raw,73.64,74,-242.5,-252.5,252.5,252.5,140,155,160,160,282.5,-295,-295,282.5,695,SBD
5,Jonathan Cruz #1,,M,BC,Open,Raw,73.8,74,230,242.5,-250,242.5,145,152.5,157.5,157.5,265,287.5,-300,287.5,687.5,SBD
6,Daniel Remulla,,M,ON,Open,Raw,72.93,74,215,227.5,232.5,232.5,165,177.5,185,185,240,252.5,262.5,262.5,680,SBD
7,Malhar Patil,,M,AB,Open,Raw,73.89,74,225,235,242.5,242.5,142.5,147.5,152.5,152.5,262.5,272.5,280,280,675,SBD
8,Cameron Preymack,,M,SK,Open,Raw,73.84,74,-237.5,-237.5,237.5,237.5,155,-160,-160,155,260,265,270,270,662.5,SBD
9,Brent Corcilles,,M,AB,Open,Raw,73.21,74,215,227.5,-235,227.5,140,150,-152.5,150,255,270,-282.5,270,647.5,SBD
10,Leo King,,M,AB,Open,Raw,72.75,74,207.5,220,227.5,227.5,122.5,127.5,132.5,132.5,250,265,275,275,635,SBD
11,Jastin Ivan Manalo,,M,MB,Open,Raw,72.66,74,212.5,225,232.5,232.5,127.5,-135,-135,127.5,257.5,272.5,-280,272.5,632.5,SBD
12,Arnold Vendiola,,M,AB,Open,Raw,73.61,74,-217.5,217.5,230,230,127.5,135,140,140,230,242.5,255,255,625,SBD
13,Maxwell Hall,,M,AB,Open,Raw,73.95,74,207.5,-222.5,230,230,110,117.5,125,125,235,255,-275,255,610,SBD
14,Daniel Duran,,M,AB,Open,Raw,73.43,74,205,217.5,-225,217.5,127.5,135,140,140,250,-265,-265,250,607.5,SBD
15,Amado Cruz,,M,BC,Open,Raw,73.32,74,225,232.5,237.5,237.5,120,125,130,130,230,237.5,-242.5,237.5,605,SBD
DQ,Anthony Aoanan,,M,ON,Open,Raw,73.51,74,-200,-200,-220,,,,,,,,,,,SBD
2,Adam Jansson,,M,ON,Open,Raw,82.65,83,270,282.5,290,290,185,192.5,196,196,285,297.5,305,305,791,SBD
1,Nick Manders,,M,AB,Open,Raw,82.01,83,250,-265,265,265,160,165,-167.5,165,330,353.5,361,361,791,SBD
3,Kafui Hotsonyame,,M,ON,Open,Raw,82.03,83,252.5,265,275,275,160,167.5,172.5,172.5,305,322.5,337.5,337.5,785,SBD
4,Hugo Bouthiette,,M,QC,Open,Raw,82.09,83,262.5,280,287.5,287.5,165,175,180,180,282.5,300,307.5,307.5,775,SBD
5,Ben Langley,,M,ON,Open,Raw,82.8,83,265,275,282.5,282.5,167.5,175,180,180,275,287.5,297.5,297.5,760,SBD
6,Kyle Graham,,M,ON,Open,Raw,82.47,83,-285,285,-300.5,285,150,155,-160,155,300,320,-337.5,320,760,SBD
7,Luke Bermingham,,M,ON,Open,Raw,82.52,83,-275,280,292.5,292.5,132.5,140,-142.5,140,260,275,-282.5,275,707.5,SBD
8,Allan Yeung,,M,SK,Open,Raw,82.4,83,230,242.5,252.5,252.5,162.5,167.5,172.5,172.5,252.5,265,277.5,277.5,702.5,SBD
9,Samuel Joseph Candy,,M,ON,Open,Raw,82.49,83,-245,245,-250,245,-140,140,147.5,147.5,270,280,-287.5,280,672.5,SBD
10,Gino Maranon,,M,AB,Open,Raw,82.16,83,250,260,-262.5,260,140,145,-147.5,145,255,265,-280,265,670,SBD
11,Alexandre Jolioceur,,M,QC,Open,Raw,82.41,83,220,227.5,-235,227.5,152.5,160,165,165,262.5,272.5,-282.5,272.5,665,SBD
12,Andrew Kim,,M,ON,Open,Raw,82.65,83,230,242.5,250,250,-145,145,150,150,-250,250,260,260,660,SBD
13,Carter Watts,,M,BC,Open,Raw,81.75,83,212.5,225,232.5,232.5,140,147.5,-152.5,147.5,260,277.5,-285,277.5,657.5,SBD
14,Ben Molotsky,,M,AB,Open,Raw,82.51,83,225,230,-235,230,157.5,162.5,-170,162.5,240,250,257.5,257.5,650,SBD
15,Bob Joshua Quilacio,,M,AB,Open,Raw,80.44,83,220,232.5,-240,232.5,130,142.5,-150,142.5,275,-290,-290,275,650,SBD
16,Simon Gee #2,,M,BC,Open,Raw,81.02,83,230,242.5,-252.5,242.5,145,152.5,157.5,157.5,-232.5,245,-257.5,245,645,SBD
17,Michael Brion,,M,BC,Open,Raw,82.14,83,195,205,207.5,207.5,152.5,157.5,160,160,255,270,-280,270,637.5,SBD
18,Byrin Wylie,,M,AB,Open,Raw,80.84,83,182.5,192.5,202.5,202.5,130,137.5,142.5,142.5,250,265,280,280,625,SBD
19,Justin Schubert,,M,BC,Open,Raw,82.11,83,202.5,207.5,215,215,142.5,150,-155,150,247.5,257.5,-265,257.5,622.5,SBD
20,Nathan Lee,,M,BC,Open,Raw,81.77,83,-195,195,-205,195,125,130,132.5,132.5,265,277.5,-285,277.5,605,SBD
21,Johnson Nguyen,,M,BC,Open,Raw,78.58,83,192.5,205,215,215,140,147.5,155,155,205,220,232.5,232.5,602.5,SBD
DQ,Murad Abbasov,,M,BC,Open,Raw,78.69,83,-255,-255,255,255,-155,-155,-155,,,,,,,SBD
1,Kwaku Antwi,,M,AB,Open,Raw,92.09,93,255,265,270,270,185,192.5,200,200,320,332.5,340,340,810,SBD
2,Alexander Ang Wei Rui,,M,BC,Open,Raw,92.13,93,265,277.5,285,285,157.5,165,-170,165,325,342.5,350,350,800,SBD
3,TJ Gear,,M,NL,Open,Raw,92.54,93,242.5,255,260,260,192.5,200,206,206,302.5,317.5,325,325,791,SBD
4,Justin Lee #1,,M,QC,Open,Raw,91.68,93,260,270,275,275,165,-172.5,-172.5,165,310,335,-337.5,335,775,SBD
5,Liam Wharton,,M,BC,Open,Raw,90.55,93,260,270,-275,270,190,-200,200,200,292.5,305,-315,305,775,SBD
6,Joshua Smith,,M,ON,Open,Raw,92.87,93,270,290,300,300,157.5,165,-170,165,290,305,-322.5,305,770,SBD
7,Djordan Gagnon,,M,QC,Open,Raw,91.73,93,270,-285,290,290,165,172.5,-177.5,172.5,285,305,-315,305,767.5,SBD
8,Zachary Reimer,,M,BC,Open,Raw,92.61,93,270,285,292.5,292.5,157.5,162.5,167.5,167.5,285,297.5,305,305,765,SBD
9,Victor Akpawan,,M,AB,Open,Raw,92.25,93,260,277.5,-285,277.5,167.5,172.5,177.5,177.5,292.5,310,-330,310,765,SBD
10,Philippe René,,M,QC,Open,Raw,92.12,93,260,272.5,280,280,-175,180,185,185,290,300,-312.5,300,765,SBD
11,Divine Wekwa,,M,BC,Open,Raw,91.19,93,-280,285,-295,285,-160,165,-170,165,225,265,-300,265,715,SBD
12,Adam Manery,,M,AB,Open,Raw,92.51,93,242.5,255,265,265,170,180,185,185,237.5,250,262.5,262.5,712.5,SBD
13,John Chittle,,M,ON,Open,Raw,92.13,93,240,255,-265,255,142.5,-150,150,150,277.5,290,295,295,700,SBD
14,Joshua Jaurigue,,M,BC,Open,Raw,92.02,93,225,240,250,250,155,162.5,170,170,260,272.5,280,280,700,SBD
15,Alejandro Feo,,M,ON,Open,Raw,89.94,93,245,260,270,270,150,-160,-160,150,275,-295,-295,275,695,SBD
16,David Danh,,M,AB,Open,Raw,91.65,93,232.5,242.5,250,250,142.5,150,155,155,270,277.5,287.5,287.5,692.5,SBD
17,Andrew Brown #2,,M,ON,Open,Raw,90.48,93,237.5,245,250,250,145,150,-152.5,150,290,-305,-305,290,690,SBD
18,Gabriel Aubé,,M,QC,Open,Raw,91.33,93,230,245,252.5,252.5,157.5,167.5,170,170,250,265,-277.5,265,687.5,SBD
19,Quentin Chan,,M,ON,Open,Raw,90.94,93,235,242.5,250,250,150,157.5,165,165,247.5,260,270,270,685,SBD
20,Ryan MacLellan,,M,BC,Open,Raw,92.36,93,205,215,-227.5,215,185,-192.5,-192.5,185,260,270,282.5,282.5,682.5,SBD
21,David Twomey,,M,BC,Open,Raw,92.02,93,232.5,242.5,250,250,140,145,-150,145,255,265,272.5,272.5,667.5,SBD
22,Seongjun Kim #1,,M,ON,Open,Raw,92.81,93,225,235,240,240,140,145,150,150,265,275,-282.5,275,665,SBD
23,Nicholas Farrales,,M,ON,Open,Raw,92.19,93,240,-255,-255,240,127.5,132.5,135,135,270,282.5,-287.5,282.5,657.5,SBD
24,Brandon Huynh,,M,ON,Open,Raw,91.59,93,220,-227.5,-227.5,220,140,147.5,152.5,152.5,277.5,-290,-290,277.5,650,SBD
25,Jesse Barnes,,M,ON,Open,Raw,90.74,93,220,235,-242.5,235,160,-167.5,-170,160,175,-177.5,-177.5,175,570,SBD
26,Riley Bertrand,,M,MB,Open,Raw,91.33,93,-255,255,-272.5,255,147.5,157.5,-165,157.5,75,,,75,487.5,SBD
27,Lukas Nering,,M,BC,Open,Raw,89.01,93,75,,,75,150,160,-167.5,160,75,,,75,310,SBD
1,Christopher Acosta-Tapia,,M,QC,Open,Raw,101.18,105,-310,-325,325,325,170,180,185,185,325,350,375.5,375.5,885.5,SBD
2,Matthew Lewis Vena,,M,BC,Open,Raw,103.49,105,305,322.5,340,340,160,170,-180,170,310,330,-360,330,840,SBD
3,Walter Cariazo,,M,ON,Open,Raw,102.26,105,270,282.5,287.5,287.5,185,-195,202.5,202.5,320,350,-376,350,840,SBD
4,Philippe Blier,,M,QC,Open,Raw,104.74,105,295,307.5,-312.5,307.5,200,207.5,212.5,212.5,307.5,317.5,-332.5,317.5,837.5,SBD
5,Ian Seguin,,M,ON,Open,Raw,101.83,105,277.5,-292.5,300,300,165,172.5,175,175,300,317.5,325,325,800,SBD
6,Lucas Wiseman,,M,NL,Open,Raw,104.06,105,280,295,300,300,157.5,-162.5,-165,157.5,310,322.5,-335,322.5,780,SBD
7,Feras Wehbi,,M,ON,Open,Raw,103.59,105,257.5,267.5,277.5,277.5,175,185,-187.5,185,270,287.5,300,300,762.5,SBD
8,Steven Fitzpatrick,,M,AB,Open,Raw,103.39,105,260,280,-285,280,160,170,175,175,280,300,-310,300,755,SBD
9,Christopher Carrera,,M,AB,Open,Raw,103.75,105,242.5,260,-275,260,175,185,-187.5,185,255,270,285,285,730,SBD
10,Mohammed Darrat,,M,ON,Open,Raw,100.97,105,255,270,277.5,277.5,150,157.5,160,160,250,270,285,285,722.5,SBD
11,Christopher Juman,,M,ON,Open,Raw,103.25,105,-260,260,-265,260,147.5,155,160,160,270,277.5,-282.5,277.5,697.5,SBD
1,Bryce Krawczyk,,M,AB,Open,Raw,118.14,120,280,300,307.5,307.5,190,202.5,-205,202.5,332.5,352.5,365,365,875,SBD
2,Kerry Dennison,,M,ON,Open,Raw,116.4,120,280,292.5,297.5,297.5,192.5,202.5,210,210,332.5,355,367.5,367.5,875,SBD
3,Erik Willis,,M,ON,Open,Raw,118.97,120,270,280,-287.5,280,220,236,238,238,335,-355,355,355,873,SBD
4,Alexis Lacombe,,M,QC,Open,Raw,118.99,120,-295,295,-320,295,167.5,177.5,-182.5,177.5,320,342.5,-365,342.5,815,SBD
5,Matthew Rud,,M,BC,Open,Raw,118.35,120,265,280,290,290,167.5,175,182.5,182.5,285,305,320,320,792.5,SBD
6,Kam Hughes,,M,ON,Open,Raw,115.81,120,265,280,-292.5,280,180,187.5,192.5,192.5,285,300,307.5,307.5,780,SBD
7,Christopher Soo,,M,BC,Open,Raw,117.75,120,282.5,-300,-300,282.5,170,177.5,-182.5,177.5,-312.5,312.5,,312.5,772.5,SBD
1,Trevor Greenwood,,M,ON,Open,Raw,151.66,120+,325,340,352.5,352.5,210,220,-225,220,305,325,-335,325,897.5,SBD
2,Laine Jackart,,M,BC,Open,Raw,132.16,120+,-282.5,290,-300,290,180,190,195,195,310,325,-345,325,810,SBD
3,Troy Martins,,M,BC,Open,Raw,150.22,120+,275,290,-300,290,182.5,190,195,195,282.5,297.5,305,305,790,SBD
4,Kristopher Adrian Hanrahan,,M,NL,Open,Raw,145.13,120+,280,292.5,300,300,165,175,-182.5,175,270,287.5,300,300,775,SBD
5,Colton Lajeunesse,,M,BC,Open,Raw,140.87,120+,-285,-295,295,295,-190,-190,190,190,250,275,-302.5,275,760,SBD
6,Trevor Patten,,M,BC,Open,Raw,140.12,120+,250,262.5,272.5,272.5,185,195,-200,195,290,-302.5,-302.5,290,757.5,SBD
1,Benjamin Yu,,M,BC,Open,Raw,57.92,59,175,180,-182.5,180,127.5,132.5,136,136,185,195,205,205,521,SBD
2,Andrew Villafuerte,,M,ON,Open,Raw,57.4,59,162.5,-167.5,-167.5,162.5,97.5,102.5,105,105,220,-232.5,-232.5,220,487.5,SBD
1,Jean-Sébastien Rhéaume,,M,QC,Masters 1,Raw,65.68,66,192.5,202.5,210,210,120,125,-127.5,125,215,225,230,230,565,SBD
2,Christopher Aviado,,M,ON,Masters 1,Raw,64.37,66,175,185,-190,185,142.5,152.5,-160,152.5,205,215,225,225,562.5,SBD
3,Kelvin Suen,,M,ON,Masters 1,Raw,65.16,66,180,190,197.5,197.5,125,-135,-135,125,207.5,-220,-220,207.5,530,SBD
1,Dean Trottier,,M,AB,Masters 1,Raw,73.18,74,195,205,212.5,212.5,122.5,130,132.5,132.5,265,275,-285,275,620,SBD
2,Peter Wylie,,M,ON,Masters 1,Raw,72.66,74,190,200,210,210,117.5,122.5,-127.5,122.5,247.5,-262.5,-262.5,247.5,580,SBD
3,Pyoter Radishevsky,,M,QC,Masters 1,Raw,73.17,74,175,185,-190,185,110,115,120,120,200,210,-215,210,515,SBD
1,Steven Cormier,,M,NB,Masters 1,Raw,80.85,83,240,255,262.5,262.5,160,-165,165,165,265,280,290.5,290.5,718,SBD
2,Joe Baratta,,M,AB,Masters 1,Raw,82.59,83,200,210,-215,210,130,137.5,-140,137.5,210,220,230,230,577.5,SBD
3,Patrick Rodrigue,,M,QC,Masters 1,Raw,81.38,83,190,202.5,-210,202.5,117.5,125,-127.5,125,232.5,247.5,250,250,577.5,SBD
4,Michael Baldassi,,M,ON,Masters 1,Raw,80.16,83,172.5,-180,,172.5,97.5,-100,-100,97.5,185,192.5,200,200,470,SBD
1,Cosmin Olteanu,,M,BC,Masters 1,Raw,91.31,93,225,237.5,245,245,137.5,147.5,152.5,152.5,215,225,232.5,232.5,630,SBD
2,Dino Camire,,M,MB,Masters 1,Raw,91.62,93,190,202.5,210,210,140,145,-150,145,240,250,-270,250,605,SBD
3,Marc Mazzocchi,,M,BC,Masters 1,Raw,91.13,93,195,205,212.5,212.5,107.5,117.5,125,125,225,237.5,245,245,582.5,SBD
1,Lloyd Welch,,M,AB,Masters 1,Raw,102.75,105,210,230,-240,230,172.5,-182.5,-185,172.5,230,255,-270,255,657.5,SBD
2,Michael Crowe,,M,AB,Masters 1,Raw,104,105,240,250,257.5,257.5,150,-157.5,-157.5,150,225,237.5,-257.5,237.5,645,SBD
3,David Noma,,M,BC,Masters 1,Raw,96.62,105,-215,215,-225,215,145,152.5,-157.5,152.5,210,220,230,230,597.5,SBD
4,Calvin Larson,,M,AB,Masters 1,Raw,102.68,105,175,185,-190,185,115,122.5,-125,122.5,225,-245,245,245,552.5,SBD
1,Andrew Stewart #1,,M,BC,Masters 1,Raw,114.29,120,245,260,272.5,272.5,167.5,175,182.5,182.5,265,280,295,295,750,SBD
2,Rob Lepine,,M,SK,Masters 1,Raw,117.98,120,257.5,270,275,275,172.5,182.5,187.5,187.5,265,277.5,-287.5,277.5,740,SBD
3,Dale Willicombe,,M,ON,Masters 1,Raw,116.44,120,245,257.5,-262.5,257.5,167.5,175,-180,175,245,257.5,270,270,702.5,SBD
1,Ryan Stinn,,M,SK,Masters 1,Raw,142.7,120+,265,280,290,290,170,185,200,200,265,285,300,300,790,SBD
2,Steve Snell #1,,M,AB,Masters 1,Raw,143.93,120+,230,245,260,260,192.5,202.5,-212.5,202.5,230,245,260,260,722.5,SBD
3,Jeremy Phelps,,M,BC,Masters 1,Raw,193.05,120+,235,245,-255,245,160,170,180,180,215,230,240,240,665,SBD
1,David Hrynkow,,M,MB,Masters 2,Raw,65.53,66,110,115,-117.5,115,82.5,85,-90,85,160,170,-177.5,170,370,SBD
2,Phil Brown,,M,NS,Masters 2,Raw,60.74,66,117.5,-132.5,-132.5,117.5,65,67.5,-70,67.5,160,175,-185,175,360,SBD
1,Joel McCullough,,M,ON,Masters 2,Raw,72.67,74,170,182.5,-192.5,182.5,110,112.5,-117.5,112.5,195,210,-225,210,505,SBD
2,James Nahirniak,,M,AB,Masters 2,Raw,71.44,74,150,155,-162.5,155,87.5,92.5,95,95,-180,190,192.5,192.5,442.5,SBD
1,Kevin Steiger,,M,ON,Masters 2,Raw,81.33,83,187.5,-197.5,197.5,197.5,110,112.5,115,115,232.5,247.5,250,250,562.5,SBD
2,Sandro D'Angelo,,M,ON,Masters 2,Raw,81.2,83,175,182.5,187.5,187.5,110,115,-117.5,115,225,235,-237.5,235,537.5,SBD
3,Andrew Bryant,,M,BC,Masters 2,Raw,82.47,83,180,190,-195,190,115,127.5,-137.5,127.5,187.5,207.5,-227.5,207.5,525,SBD
4,Brian Colbourne,,M,AB,Masters 2,Raw,80.5,83,162.5,-172.5,180,180,120,130,137.5,137.5,185,-200,-200,185,502.5,SBD
1,Jeff Butt,,M,NL,Masters 2,Raw,92.05,93,232.5,240,245,245,135,140,142.5,142.5,250,262.5,267.5,267.5,655,SBD
2,Rodney Pinchbeck,,M,BC,Masters 2,Raw,92.22,93,200,210,215,215,140,145,-150,145,237.5,245,-252.5,245,605,SBD
3,R. Tyler McPhail,,M,BC,Masters 2,Raw,91.3,93,195,210,-217.5,210,132.5,142.5,-147.5,142.5,195,210,217.5,217.5,570,SBD
4,Brent Hamm,,M,MB,Masters 2,Raw,92.52,93,150,160,167.5,167.5,130,135,140,140,200,212.5,222.5,222.5,530,SBD
5,Bryce Coutts,,M,SK,Masters 2,Raw,89.31,93,162.5,170,180,180,115,120,-125,120,195,207.5,215,215,515,SBD
1,Mark Pope,,M,ON,Masters 2,Raw,103.34,105,220,230,240,240,150,155,160,160,252.5,265,279,279,679,SBD
2,Leon Brown,,M,ON,Masters 2,Raw,102.03,105,190,210,225,225,185,-200,-200,185,200,220,235,235,645,SBD
3,Keith Evans #2,,M,BC,Masters 2,Raw,103.14,105,185,192.5,200,200,125,-130,-130,125,215,227.5,240,240,565,SBD
1,Scott Robertson,,M,BC,Masters 2,Raw,118.91,120,290,-310,-310,290,200,-217.5,-217.5,200,255,265,275,275,765,SBD
2,Nick Doelman,,M,ON,Masters 2,Raw,118.18,120,100,-102.5,-102.5,100,130,137.5,-142.5,137.5,200,215,-220,215,452.5,SBD
1,Peter Michaud,,M,NB,Masters 2,Raw,120.94,120+,250,265,-275,265,147.5,155,160,160,260,275,285,285,710,SBD
2,Timothy Nadeau,,M,AB,Masters 2,Raw,148.78,120+,237.5,255,265,265,132.5,140,142.5,142.5,247.5,270,275,275,682.5,SBD
1,Bob Hindley,,M,BC,Masters 3,Raw,71.86,74,-150,150,160,160,60,65,70,70,185,-195,195,195,425,SBD
1,Walter Dengler,,M,BC,Masters 3,Raw,90.05,93,175,182.5,192.5,192.5,105,110,115,115,192.5,205,210,210,517.5,SBD
2,Claude Dallaire,,M,QC,Masters 3,Raw,92.44,93,165,175,182.5,182.5,97.5,105,-110,105,200,-210,215,215,502.5,SBD
1,Sterling Nering,,M,BC,Masters 3,Raw,103.2,105,210,212.5,220,220,150,-155,-157.5,150,225,235,-245,235,605,SBD
2,Ron Kilpatrick,,M,ON,Masters 3,Raw,103.15,105,210,222.5,232.5,232.5,105,110,115,115,225,235,247.5,247.5,595,SBD
3,Rolf Popp,,M,BC,Masters 3,Raw,104.69,105,172.5,192.5,200,200,142.5,152.5,-155,152.5,205,215,-227.5,215,567.5,SBD
4,Kevin Grant-Hose,,M,ON,Masters 3,Raw,98.01,105,177.5,185,192.5,192.5,102.5,-105,107.5,107.5,182.5,190,200,200,500,SBD
1,Mike Forster,,M,ON,Masters 3,Raw,124.7,120+,225,230,235,235,110,117.5,122.5,122.5,225,235,-242.5,235,592.5,SBD
2,John Quinton,,M,BC,Masters 3,Raw,142.31,120+,165,170,-175,170,125,132.5,-137.5,132.5,175,-180,-180,175,477.5,SBD
1,Donald Lovell,,M,BC,Masters 4,Raw,65.35,66,95,105,-110,105,52.5,57.5,-63,57.5,150,160,-165.5,160,322.5,SBD
1,Warren Brent Davis,,M,BC,Masters 4,Raw,73.33,74,120,127.5,132.5,132.5,80,85,90,90,150,160,165,165,387.5,SBD
1,Pierre Baillargeon,,M,QC,Masters 4,Raw,100.64,105,175,-185,185,185,125,-130,-130,125,215,225,230,230,540,SBD
1,Calla Hrynweich,,F,SK,Sub-Juniors,Single-ply,63.03,69,112.5,120,125,125,72.5,76,78,78,112.5,118,122.5,122.5,325.5,SBD
1,Natalie Butz,,F,SK,Sub-Juniors,Single-ply,83.7,84,127.5,132.5,-135,132.5,82.5,85.5,90.5,90.5,125,-132.5,-140,125,348,SBD
1,Simone Lai,,F,ON,Open,Single-ply,50.43,52,110,117.5,122.5,122.5,60,65,70,70,115,,,115,307.5,SBD
1,Shanee Cesard,,F,ON,Open,Single-ply,56.81,57,-162.5,-162.5,162.5,162.5,82.5,87.5,92.5,92.5,-175,-175,-175,,255,SBD
1,Charlene Cossar,,F,SK,Open,Single-ply,68.54,69,170,180,-187,180,105,110,113,113,177.5,187.5,-195,187.5,480.5,SBD
1,Shantelle Szuch,,F,AB,Masters 1,Single-ply,66.63,69,172.5,182.5,187.5,187.5,95,100,-104,100,180,187.5,194.5,194.5,482,SBD
1,Marie Wagner,,F,ON,Masters 1,Single-ply,82.86,84,180,190.5,195.5,195.5,85,90,92.5,92.5,170,-172.5,,170,458,SBD
DQ,Angel Yau-Vandenburg,,F,ON,Masters 2,Single-ply,51.31,52,-110,-110,-110,,,,,,,,,,,SBD
1,Erin Denton-O'Neill,,F,ON,Masters 2,Single-ply,61.35,63,127.5,-137.5,-137.5,127.5,80,85,-90,85,110,-125,-125,110,322.5,SBD
1,Mava Brydges,,F,SK,Masters 3,Single-ply,75.29,76,132.5,-137.5,-137.5,132.5,85,90,-91.5,90,135,142.5,148,148,370.5,SBD
1,Patricia Kowal,,F,BC,Masters 4,Single-ply,61.63,63,35,,,35,50,52.5,-55,52.5,107.5,115.5,-120,115.5,203,SBD
1,Carol Brady,,F,ON,Masters 4,Single-ply,65.79,69,95,102.5,-110,102.5,62.5,65,-70,65,95,102.5,110.5,110.5,278,SBD
1,Susan Haywood,,F,MB,Masters 4,Single-ply,81.22,84,77.5,85.5,90,90,40,57.5,-62.5,57.5,82.5,90,-100.5,90,237.5,SBD
1,Dominic Hetu,,M,AB,Sub-Juniors,Single-ply,88.03,93,202.5,217.5,222.5,222.5,135,147.5,155,155,172.5,185,192.5,192.5,570,SBD
1,Derrick Chuong,,M,AB,Juniors,Single-ply,96.3,105,265,280,292.5,292.5,175,180,-190,180,270,285,295,295,767.5,SBD
1,Lucas Homer,,M,ON,Open,Single-ply,73.68,74,-310,310,-324,310,-175,175,180,180,270,-282.5,-282.5,270,760,SBD
1,Dryden Bussey,,M,NL,Open,Single-ply,81.8,83,235,245,255,255,170,-177.5,-177.5,170,220,232.5,240,240,665,SBD
1,Aaron Ziffle,,M,SK,Open,Single-ply,92.44,93,315,-325,325,325,200,210,215,215,255,262.5,265,265,805,SBD
2,Charlie Caron,,M,QC,Open,Single-ply,92.02,93,-305,310,317.5,317.5,215,222.5,-230,222.5,247.5,257.5,-265,257.5,797.5,SBD
3,Steve Doyle,,M,NL,Open,Single-ply,91.72,93,280,290,300,300,-205,205,-210,205,250,260,-272.5,260,765,SBD
1,John-Wesley Cummings,,M,BC,Open,Single-ply,103.62,105,250,280,290,290,247.5,-262.5,-267.5,247.5,225,242.5,252.5,252.5,790,SBD
2,Dustin Fraser,,M,SK,Open,Single-ply,98.56,105,290,302.5,307.5,307.5,200,207.5,-212.5,207.5,255,265,-275,265,780,SBD
1,Zaid Ibrahiem,,M,AB,Open,Single-ply,119.28,120,340,350,-360,350,187.5,220,-227.5,220,310,325,330,330,900,SBD
2,Bradley Fulton,,M,ON,Open,Single-ply,111.26,120,70,,,70,195,205,215,215,250,,,250,535,SBD
1,Anton Zmushka,,M,AB,Open,Single-ply,122.9,120+,330,345,355,355,225,235,-240,235,295,315,-332.5,315,905,SBD
1,Sean Vandenburg,,M,ON,Masters 1,Single-ply,64.13,66,175,185,197.5,197.5,125,-127.5,-127.5,125,190,200,-222.5,200,522.5,SBD
1,John MacDonald #1,,M,PE,Masters 1,Single-ply,118.75,120,275,300,320,320,215,225,237.5,237.5,240,275,295,295,852.5,SBD
DQ,Geoffrey Robinson,,M,BC,Masters 1,Single-ply,112.92,120,-207.5,-207.5,-207.5,,,,,,,,,,,SBD
1,Ryan Fowler,,M,SK,Masters 1,Single-ply,138.81,120+,290,300,310,310,227.5,237.5,245,245,210,225,240,240,795,SBD
1,Jay McGrath,,M,NL,Masters 2,Single-ply,65.65,66,-195,195,-210.5,195,127.5,-133,-133,127.5,185,195,200,200,522.5,SBD
2,David Hrynkow,,M,MB,Masters 2,Single-ply,65.59,66,130,140,147.5,147.5,85,-92.5,-92.5,85,180,192.5,200,200,432.5,SBD
1,Andrew Bryant,,M,BC,Masters 2,Single-ply,82.59,83,220,230,-240,230,140,145,-155,145,190,210,-237.5,210,585,SBD
1,Jeffery Butt,,M,NL,Masters 2,Single-ply,92.61,93,262.5,272.5,277.5,277.5,185,190,200,200,275,287.5,298,298,775.5,SBD
2,Barry Antoniow,,M,ON,Masters 2,Single-ply,91.32,93,205,220,230,230,220,-228,228,228,180,200,212.5,212.5,670.5,SBD
1,Joe Costa Oliveira,,M,BC,Masters 2,Single-ply,103.6,105,280,292.5,301,301,205,-210,210,210,245,262.5,-280,262.5,773.5,SBD
1,Paul Gidney,,M,NS,Masters 3,Single-ply,101,105,200,215,220,220,162.5,167.5,172.5,172.5,260,276,-293,276,668.5,SBD
2,Ron Kilpatrick,,M,ON,Masters 3,Single-ply,102.05,105,225,240,250,250,155,160,-165,160,225,232.5,240,240,650,SBD
1,Donald Lovell,,M,BC,Masters 4,Single-ply,66.69,74,-110,110,125,125,60,65,-70,65,155,165,175,175,365,SBD
1,Ron Delaney,,M,NS,Masters 4,Single-ply,81.99,83,170,-177.5,180,180,-105,105,107.5,107.5,220,232.5,237.5,237.5,525,SBD
1,Carmel Hashemi Dahaj,,F,BC,SO,Raw,62.88,63,30,-35,-37.5,30,25,30,-37.5,30,45,55,-60,55,115,SBD
1,Lisa Jeanne Newell,,F,BC,SO,Raw,73.73,76,25,30,-32.5,30,27.5,30,32.5,32.5,65,-70,70,70,132.5,SBD
1,Meliah Motchman,,F,BC,SO,Raw,87.6,84+,57.5,62.5,-67.5,62.5,30,35,37.5,37.5,70,75,-80,75,175,SBD
1,Thien Lam,,M,BC,SO,Raw,56.09,59,35,-50,-50,35,27.5,-32.5,-37.5,27.5,55,70,-80,70,132.5,SBD
1,Phil Brown,,M,NS,SO,Raw,61.02,66,100,115,125,125,55,60,65,65,130,147.5,167.5,167.5,357.5,SBD
2,Dennis Monchamp,,M,BC,SO,Raw,63.58,66,-102.5,102.5,115,115,65,70,75,75,140,150,-170,150,340,SBD
1,Jotham Polege,,M,BC,SO,Raw,67.68,74,-85,85,100,100,47.5,-52.5,-60,47.5,85,95,110,110,257.5,SBD
2,Thuc Nguyen,,M,BC,SO,Raw,72.56,74,77.5,90,-110,90,50,55,57.5,57.5,82.5,95,110,110,257.5,SBD
1,Cameron Gordon,,M,PE,SO,Raw,80.53,83,135,140,145,145,105,115,-117.5,115,120,137.5,140,140,400,SBD
2,Travis Burkett,,M,BC,SO,Raw,75.02,83,107.5,-115,-120,107.5,82.5,85,-87.5,85,175,-182.5,,175,367.5,SBD
3,Amandip Gill,,M,BC,SO,Raw,75.86,83,85,100,-120,100,62.5,-72.5,82.5,82.5,-90,105,117.5,117.5,300,SBD
1,Ryan Kealey,,M,BC,SO,Raw,112.99,120,187.5,197.5,205,205,137.5,147.5,155,155,192.5,207.5,217.5,217.5,577.5,SBD
2,Tye Cranton,,M,BC,SO,Raw,114.27,120,-87.5,87.5,92.5,92.5,77.5,85,-87.5,85,137.5,142.5,152.5,152.5,330,SBD
3,Tyrone Liebenberg,,M,BC,SO,Raw,113.71,120,92.5,102.5,110,110,70,77.5,-82.5,77.5,115,125,135,135,322.5,SBD
1,Callum MacLagan,,M,BC,SO,Raw,178.61,120+,172.5,182.5,-190,182.5,130,135,140,140,180,192.5,207.5,207.5,530,SBD
2,Daniel Thomas #3,,M,BC,SO,Raw,131.89,120+,135,150,172.5,172.5,67.5,77.5,85,85,145,165,185,185,442.5,SBD
1,Thien Lam,,M,BC,SO,Raw,56.09,59,35,-50,-50,35,27.5,-32.5,-37.5,27.5,55,70,-80,70,132.5,SBD
1,Maria Frank,,F,AB,Open,Raw,56.55,57,,,,,80,85,90,90,,,,,90,B
2,Amanda Wall,,F,SK,Open,Raw,56.33,57,,,,,60,65,-70,65,,,,,65,B
1,Cynthia Leighton,,F,BC,Open,Raw,62.13,63,,,,,80,85,90,90,,,,,90,B
2,Maria Mullaly,,F,NL,Open,Raw,61.21,63,,,,,75,77.5,-80,77.5,,,,,77.5,B
1,Kiley Morrissey,,F,AB,Open,Raw,68.02,69,,,,,87.5,-92.5,92.5,92.5,,,,,92.5,B
2,Samantha Fung,,F,AB,Open,Raw,68.63,69,,,,,82.5,87.5,-92.5,87.5,,,,,87.5,B
3,Annie Crete,,F,BC,Open,Raw,68.71,69,,,,,57.5,62.5,65,65,,,,,65,B
1,Lydia North,,F,ON,Open,Raw,75.97,76,,,,,92.5,97.5,-102.5,97.5,,,,,97.5,B
2,Jessica Alicandro,,F,QC,Open,Raw,73.44,76,,,,,85,90,95,95,,,,,95,B
3,Nicole Bekzadeh,,F,ON,Open,Raw,74.85,76,,,,,70,75,-85,75,,,,,75,B
1,Rashenna Grzybowski,,F,SK,Open,Raw,76.15,84,,,,,85,90,-92.5,90,,,,,90,B
1,April Goodfellow,,F,AB,Open,Raw,99.2,84+,,,,,95,102.5,-107.5,102.5,,,,,102.5,B
1,Asia Mya Young,,F,BC,Masters 1,Raw,55.7,57,,,,,50,55,-60,55,,,,,55,B
1,Emmannuelle Archambault,,F,SK,Masters 1,Raw,74.55,76,,,,,90,-95,95,95,,,,,95,B
2,Carmela Smythe,,F,BC,Masters 1,Raw,72.84,76,,,,,52.5,57.5,62.5,62.5,,,,,62.5,B
1,Marie Wagner,,F,ON,Masters 1,Raw,83.76,84,,,,,87.5,-92.5,95,95,,,,,95,B
2,Pamela Hodder,,F,AB,Masters 1,Raw,78.9,84,,,,,82.5,87.5,92.5,92.5,,,,,92.5,B
1,Dana Sandler,,F,AB,Masters 1,Raw,102.81,84+,,,,,75,80,85,85,,,,,85,B
2,Morgan Haupt,,F,BC,Masters 1,Raw,84.91,84+,,,,,65,70,75,75,,,,,75,B
1,Angel Yau-Vandenburg,,F,ON,Masters 2,Raw,53.08,57,,,,,47.5,50,52.5,52.5,,,,,52.5,B
2,Meghan O'Connell,,F,BC,Masters 2,Raw,54.76,57,,,,,42.5,-47.5,-47.5,42.5,,,,,42.5,B
1,Tracy Wise,,F,ON,Masters 2,Raw,74.96,76,,,,,72.5,-77.5,77.5,77.5,,,,,77.5,B
1,Wanda Gail Leese,,F,NS,Masters 2,Raw,81.76,84,,,,,47.5,52.5,-55,52.5,,,,,52.5,B
1,Deborah Ellard,,F,AB,Masters 3,Raw,67.91,69,,,,,65,70.5,72,72,,,,,72,B
1,Janine Wheeler,,F,ON,Masters 3,Raw,75.46,76,,,,,52.5,55,-57.5,55,,,,,55,B
1,Monica Wille,,F,BC,Masters 3,Raw,83.42,84,,,,,77.5,82.5,85,85,,,,,85,B
1,Margot Croft,,F,BC,Masters 3,Raw,96.37,84+,,,,,55,57.5,-60,57.5,,,,,57.5,B
1,Patricia Kowal,,F,BC,Masters 4,Raw,61.56,63,,,,,47.5,50,52.5,52.5,,,,,52.5,B
1,Rayan Armon Kia,,M,BC,Sub-Juniors,Raw,51.24,53,,,,,-90,90,95,95,,,,,95,B
2,Zachary Vandenburg,,M,ON,Sub-Juniors,Raw,50.89,53,,,,,67.5,72.5,-75,72.5,,,,,72.5,B
1,Anson Chew,,M,BC,Sub-Juniors,Raw,65.13,66,,,,,150,157.5,165,165,,,,,165,B
1,Anthony-Kram Jasmin,,M,QC,Juniors,Raw,71.75,74,,,,,135,140,147.5,147.5,,,,,147.5,B
2,Euwe Makinano,,M,MB,Juniors,Raw,72.64,74,,,,,122.5,127.5,132.5,132.5,,,,,132.5,B
1,Luca Rivera,,M,QC,Juniors,Raw,81.35,83,,,,,120,125,-132.5,125,,,,,125,B
2,Cameron Gordon,,M,PE,Juniors,Raw,81.21,83,,,,,105,115,117.5,117.5,,,,,117.5,B
1,Leunard Gervalla,,M,ON,Juniors,Raw,118.96,120,,,,,230,-238.5,-238.5,230,,,,,230,B
2,Mohit Parmar,,M,BC,Juniors,Raw,118.34,120,,,,,142.5,152.5,160,160,,,,,160,B
1,Muhammad Haider,,M,ON,Juniors,Raw,135.51,120+,,,,,180,-192.5,-192.5,180,,,,,180,B
1,Pete Williams,,M,BC,Open,Raw,64.88,66,,,,,117.5,122.5,127.5,127.5,,,,,127.5,B
2,Benjamin Wangsawidjaja,,M,BC,Open,Raw,65.43,66,,,,,120,122.5,127.5,127.5,,,,,127.5,B
3,Andrew Lang,,M,BC,Open,Raw,64.26,66,,,,,112.5,120,-127.5,120,,,,,120,B
1,Daniel Remulla,,M,ON,Open,Raw,73.95,74,,,,,160,170,177.5,177.5,,,,,177.5,B
2,Loc Nguyen,,M,QC,Open,Raw,73.06,74,,,,,152.5,160,-165,160,,,,,160,B
3,Robert Lim,,M,BC,Open,Raw,72.51,74,,,,,127.5,-137.5,-137.5,127.5,,,,,127.5,B
1,Ryan MacLellan,,M,BC,Open,Raw,92.17,93,,,,,175,180,185,185,,,,,185,B
2,Jeremy Klaus,,M,BC,Open,Raw,87.6,93,,,,,155,162.5,165,165,,,,,165,B
3,Charlie Caron,,M,QC,Open,Raw,92.82,93,,,,,160,165,-170,165,,,,,165,B
4,Kenneth Mann,,M,BC,Open,Raw,91.19,93,,,,,145,155,-160,155,,,,,155,B
1,Graham Aarsen,,M,BC,Open,Raw,103.32,105,,,,,185,195,205,205,,,,,205,B
2,TJ Gear,,M,NL,Open,Raw,94.63,105,,,,,187.5,195,202.5,202.5,,,,,202.5,B
3,Leon Brown,,M,ON,Open,Raw,101.85,105,,,,,-190,195,-200,195,,,,,195,B
4,Sumeet Sharma,,M,BC,Open,Raw,94.09,105,,,,,125,130,135,135,,,,,135,B
1,Shane Martin,,M,AB,Open,Raw,127.82,120+,,,,,220,230,237.5,237.5,,,,,237.5,B
2,Garrett Cartwright-Bentley,,M,ON,Open,Raw,136.33,120+,,,,,200,210,220,220,,,,,220,B
3,Jordan Phelps,,M,BC,Open,Raw,191.41,120+,,,,,160,172.5,-187.5,172.5,,,,,172.5,B
1,Sean Vandenburg,,M,ON,Masters 1,Raw,67.57,74,,,,,100,105,110,110,,,,,110,B
1,Pyoter Radishevsky,,M,QC,Masters 1,Raw,75.02,83,,,,,115,120,-122.5,120,,,,,120,B
1,Cosmin Olteanu,,M,BC,Masters 1,Raw,93.79,105,,,,,145,152.5,155,155,,,,,155,B
2,David Noma,,M,BC,Masters 1,Raw,96.97,105,,,,,145,152.5,-155,152.5,,,,,152.5,B
1,Gregory Young,,M,BC,Masters 1,Raw,161.11,120+,,,,,227.5,237.5,248.5,248.5,,,,,248.5,B
2,Jeremy Phelps,,M,BC,Masters 1,Raw,193.43,120+,,,,,160,175,-182.5,175,,,,,175,B
1,David Hrynkow,,M,MB,Masters 2,Raw,65.75,66,,,,,82.5,-87.5,,82.5,,,,,82.5,B
1,Ramis Be,,M,BC,Masters 2,Raw,73.45,74,,,,,137.5,-140,-140,137.5,,,,,137.5,B
2,Gary Lacoursiere,,M,ON,Masters 2,Raw,73.5,74,,,,,125,-130,-130,125,,,,,125,B
1,Brian Colbourne,,M,AB,Masters 2,Raw,80.83,83,,,,,-120,127.5,132.5,132.5,,,,,132.5,B
2,Andrew Bryant,,M,BC,Masters 2,Raw,82.77,83,,,,,115,125,-130,125,,,,,125,B
1,R. Tyler McPhail,,M,BC,Masters 2,Raw,91.67,93,,,,,132.5,142.5,-145,142.5,,,,,142.5,B
2,Gordon Sjodin,,M,BC,Masters 2,Raw,91.4,93,,,,,50,-52.5,107.5,107.5,,,,,107.5,B
1,Michael Wade,,M,AB,Masters 2,Raw,105,105,,,,,137.5,152.5,157.5,157.5,,,,,157.5,B
1,Scott Robertson,,M,BC,Masters 2,Raw,119.95,120,,,,,170,190,207.5,207.5,,,,,207.5,B
1,Ward Plunet,,M,BC,Masters 3,Raw,64.84,66,,,,,65,-72.5,-72.5,65,,,,,65,B
1,Réjean Gauvreau,,M,QC,Masters 3,Raw,72.04,74,,,,,122.5,128,129,129,,,,,129,B
1,Marc Vézina,,M,BC,Masters 3,Raw,80.31,83,,,,,100,107.5,-112.5,107.5,,,,,107.5,B
1,Stephen Flemming,,M,PE,Masters 3,Raw,91.98,93,,,,,120,-125,-125,120,,,,,120,B
2,Claude Dallaire,,M,QC,Masters 3,Raw,92.6,93,,,,,97.5,102.5,107.5,107.5,,,,,107.5,B
1,John Ralf,,M,AB,Masters 3,Raw,102.51,105,,,,,145,155,162.5,162.5,,,,,162.5,B
2,Donald Peters,,M,NB,Masters 3,Raw,100.91,105,,,,,-100,100,105,105,,,,,105,B
3,Daniel Royer,,M,QC,Masters 3,Raw,100.26,105,,,,,97.5,102.5,-105,102.5,,,,,102.5,B
1,Tommy Hoekstra,,M,AB,Masters 3,Raw,117.5,120,,,,,100,110,-112.5,110,,,,,110,B
1,Terence Young,,M,NL,Masters 3,Raw,140.99,120+,,,,,127.5,135,140,140,,,,,140,B
2,John Quinton,,M,BC,Masters 3,Raw,140.82,120+,,,,,125,132.5,-137.5,132.5,,,,,132.5,B
1,Simone Lai,,F,ON,Open,Single-ply,49.9,52,,,,,50,,,50,,,,,50,B
1,Maria Frank,,F,AB,Open,Single-ply,56.22,57,,,,,-120,122.5,127.5,127.5,,,,,127.5,B
1,Angelina Van Ryswyk,,F,AB,Open,Single-ply,99.19,84+,,,,,-130,130,-145,130,,,,,130,B
1,Pamela Hodder,,F,AB,Masters 1,Single-ply,79.37,84,,,,,-117.5,117.5,121,121,,,,,121,B
1,Angel Yau-Vandenburg,,F,ON,Masters 2,Single-ply,53.39,57,,,,,67.5,-70,-72.5,67.5,,,,,67.5,B
1,Lisanne Glavin,,F,ON,Masters 2,Single-ply,68.72,69,,,,,75,78,78.5,78.5,,,,,78.5,B
1,Heidi Schraft,,F,ON,Masters 3,Single-ply,50.28,52,,,,,70,-75,-75,70,,,,,70,B
DQ,Deborah Ellard,,F,AB,Masters 3,Single-ply,67.6,69,,,,,-82.5,-82.5,-85,,,,,,,B
1,Janine Wheeler,,F,ON,Masters 3,Single-ply,74.8,76,,,,,70,75,77.5,77.5,,,,,77.5,B
1,Patricia Kowal,,F,BC,Masters 4,Single-ply,61.51,63,,,,,47.5,50,52.5,52.5,,,,,52.5,B
1,Zachary Vandenburg,,M,ON,Sub-Juniors,Single-ply,51.84,53,,,,,70,75,80,80,,,,,80,B
1,Jordan Hoang,,M,AB,Open,Single-ply,80.52,83,,,,,167.5,200,-210,200,,,,,200,B
1,Charlie Caron,,M,QC,Open,Single-ply,92,93,,,,,207.5,215,-225,215,,,,,215,B
2,Graeme Gerlach,,M,BC,Open,Single-ply,92.16,93,,,,,185,192.5,-200,192.5,,,,,192.5,B
1,Brian Choung,,M,AB,Open,Single-ply,98.05,105,,,,,-245,-245,245,245,,,,,245,B
2,Nathan Dorward,,M,SK,Open,Single-ply,104.24,105,,,,,187.5,200,210,210,,,,,210,B
DQ,John-Wesley Cummings,,M,BC,Open,Single-ply,104.25,105,,,,,-290,-290,-290,,,,,,,B
1,Arshia Arshadi,,M,AB,Open,Single-ply,117.33,120,,,,,225,235,250,250,,,,,250,B
1,Garrett Cartwright-Bentley,,M,ON,Open,Single-ply,135.14,120+,,,,,325,332.5,-350,332.5,,,,,332.5,B
2,Shane Martin,,M,AB,Open,Single-ply,126.14,120+,,,,,295,327.5,-350,327.5,,,,,327.5,B
3,Jordan Phelps,,M,BC,Open,Single-ply,191.68,120+,,,,,255,-267.5,272.5,272.5,,,,,272.5,B
4,Albert Yamaguchi,,M,BC,Open,Single-ply,143.83,120+,,,,,210,-225,-225,210,,,,,210,B
DQ,Brian Kravtsov,,M,AB,Open,Single-ply,133.15,120+,,,,,-265,-265,-270,,,,,,,B
DQ,Jason Klaus,,M,BC,Open,Single-ply,159.35,120+,,,,,-245,-260,-272.5,,,,,,,B
1,Sean Vandenburg,,M,ON,Masters 1,Single-ply,68.4,74,,,,,130,-135,135,135,,,,,135,B
1,John MacDonald #1,,M,PE,Masters 1,Single-ply,118.69,120,,,,,220,240,245,245,,,,,245,B
1,David Hrynkow,,M,MB,Masters 2,Single-ply,65.78,66,,,,,85,-90,-92.5,85,,,,,85,B
DQ,Gary Lacoursiere,,M,ON,Masters 2,Single-ply,73.61,74,,,,,-155,-155,-155,,,,,,,B
1,Greg Holmes,,M,ON,Masters 2,Single-ply,80.44,83,,,,,175,-180,-183,175,,,,,175,B
2,Andrew Bryant,,M,BC,Masters 2,Single-ply,82.77,83,,,,,140,150,-160,150,,,,,150,B
1,Barry Antoniow,,M,ON,Masters 2,Single-ply,91.51,93,,,,,225,251,-281,251,,,,,251,B
DQ,Robert Truchon,,M,ON,Masters 2,Single-ply,88.87,93,,,,,-105,-105,-105,,,,,,,B
1,Nick Doelman,,M,ON,Masters 2,Single-ply,117.86,120,,,,,142.5,152.5,162.5,162.5,,,,,162.5,B
1,Claude Dallaire,,M,QC,Masters 3,Single-ply,92.96,93,,,,,107.5,-112.5,115,115,,,,,115,B
1,Stephen Flemming,,M,PE,Masters 3,Single-ply,93.88,105,,,,,140,-150,-150,140,,,,,140,B
2,Martin Heenan,,M,ON,Masters 3,Single-ply,101.54,105,,,,,125,-135,-142.5,125,,,,,125,B
3,Daniel Royer,,M,QC,Masters 3,Single-ply,100.5,105,,,,,-107.5,107.5,112.5,112.5,,,,,112.5,B
1,John Quinton,,M,BC,Masters 3,Single-ply,143.06,120+,,,,,155,-162.5,-162.5,155,,,,,155,B
