Division,WeightClassKg,Place,Name,Team,BodyweightKg,Best3SquatKg,Best3BenchKg,Best3DeadliftKg,TotalKg,Equipment,Event,Sex,BirthDate
Boys,51.71,1,Jamie Rios,Big Lake Reagan County,50.98,174.63,90.72,165.56,430.91,Single-ply,SBD,M,
Boys,51.71,2,Jason Ramirez,Levelland,48.81,151.95,104.33,154.22,410.5,Single-ply,SBD,M,
Boys,51.71,3,Jonathan Becerril,Perryton,48.17,142.88,74.84,147.42,365.14,Single-ply,SBD,M,
Boys,51.71,4,Tyler Munoz,Sweetwater,50.08,127.01,81.65,124.74,333.39,Single-ply,SBD,M,
Boys,51.71,5,Nathan Rendon,Levelland,50.89,106.59,79.38,131.54,317.51,Single-ply,SBD,M,
Boys,51.71,6,Nay Moo,Vernon,50.71,102.06,65.77,138.35,306.17,Single-ply,SBD,M,
Boys,51.71,7,Jose Zamora,Dumas,51.53,102.06,72.57,122.47,297.1,Single-ply,SBD,M,
Boys,51.71,8,Sam O'Brien #2,Clyde,50.44,99.79,58.97,124.74,283.5,Single-ply,SBD,M,
Boys,51.71,9,Andre Quiroz,Fort Stockton,50.62,108.86,56.7,117.93,283.5,Single-ply,SBD,M,
Boys,51.71,10,Andrew Rangel,Fort Stockton,51.53,95.25,63.5,113.4,272.16,Single-ply,SBD,M,
Boys,51.71,11,Collen Prickett,Amarillo Highland Park,48.53,90.72,68.04,102.06,260.82,Single-ply,SBD,M,
Boys,51.71,NS,Jose Vasquez Cruz,Andrews,,,,,,Single-ply,SBD,M,
Boys,51.71,DQ,Rj Lopez,Levelland,50.8,117.93,79.38,,,Single-ply,SBD,M,
Boys,55.79,1,Zaniel Florez,Kermit,54.43,188.24,97.52,174.63,460.4,Single-ply,SBD,M,
Boys,55.79,2,Cristian Orona,Monahans,53.8,176.9,90.72,185.97,453.59,Single-ply,SBD,M,
Boys,55.79,3,Giovanny Ponce,Friona,55.61,167.83,97.52,158.76,424.11,Single-ply,SBD,M,
Boys,55.79,4,Isaac Castro,Perryton,55.43,145.15,97.52,167.83,410.5,Single-ply,SBD,M,
Boys,55.79,5,Cesar Ramirez,Perryton,55.25,158.76,86.18,161.03,405.97,Single-ply,SBD,M,
Boys,55.79,6,Caison Burrus,Fort Stockton,55.16,158.76,74.84,161.03,394.63,Single-ply,SBD,M,
Boys,55.79,7,Nick Morales,Pecos,55.34,142.88,97.52,147.42,387.82,Single-ply,SBD,M,
Boys,55.79,8,Jeremey Rodriguez,Tulia,54.52,149.69,72.57,158.76,381.02,Single-ply,SBD,M,
Boys,55.79,9,Michael Bautista,Friona,54.61,129.27,83.91,138.35,351.53,Single-ply,SBD,M,
Boys,55.79,10,Trey Jimenez,Sweetwater,55.16,142.88,72.57,131.54,347,Single-ply,SBD,M,
Boys,55.79,DQ,Ector Martinez,Sweetwater,55.79,142.88,90.72,,,Single-ply,SBD,M,
Boys,59.87,1,Ivan Zamora,Andrews,58.24,197.31,113.4,201.85,512.56,Single-ply,SBD,M,
Boys,59.87,2,Tristen Thompson,Merkel,59.24,195.04,117.93,188.24,501.22,Single-ply,SBD,M,
Boys,59.87,3,Kendrick Porras,Fort Stockton,59.87,170.1,92.99,190.51,453.59,Single-ply,SBD,M,
Boys,59.87,4,Francisco Balderas,Vernon,58.51,167.83,102.06,174.63,444.52,Single-ply,SBD,M,
Boys,59.87,5,Toby Crabb,Slaton,57.7,165.56,106.59,158.76,430.91,Single-ply,SBD,M,
Boys,59.87,6,Kenny Richardson,Big Spring,59.33,151.95,102.06,172.37,426.38,Single-ply,SBD,M,
Boys,59.87,7,Jonathan Jaso,Dumas,59.24,165.56,92.99,158.76,417.3,Single-ply,SBD,M,
Boys,59.87,8,Cougar Jetton,San Angelo Grape Creek,59.42,176.9,88.45,151.95,417.3,Single-ply,SBD,M,
Boys,59.87,9,Emmanuel Ibanez,Dumas,59.51,149.69,90.72,158.76,399.16,Single-ply,SBD,M,
Boys,59.87,10,Juan Ruiz,Sonora,59.15,151.95,79.38,165.56,396.89,Single-ply,SBD,M,
Boys,59.87,11,Erick Cruz,Lubbock Roosevelt,57.88,140.61,86.18,163.29,390.09,Single-ply,SBD,M,
Boys,59.87,NS,Mario Bautista,Friona,,,,,,Single-ply,SBD,M,
Boys,67.13,1,Christian Laja,Perryton,66.41,238.14,122.47,219.99,580.6,Single-ply,SBD,M,
Boys,67.13,2,Josh Lopez,Big Spring,66.59,210.92,113.4,210.92,535.24,Single-ply,SBD,M,
Boys,67.13,3,Jaylee Ibarra,Fort Stockton,66.41,199.58,124.74,181.44,505.76,Single-ply,SBD,M,
Boys,67.13,4,Sebastian Gonzales,Sweetwater,63.78,172.37,113.4,204.12,489.88,Single-ply,SBD,M,
Boys,67.13,5,Jose Chavira,Dumas,66.68,183.7,111.13,195.04,489.88,Single-ply,SBD,M,
Boys,67.13,6,Avery Cruz,Midland Greenwood,66.59,195.04,102.06,190.51,487.61,Single-ply,SBD,M,
Boys,67.13,7,John Rivera,Snyder,66.68,195.04,102.06,185.97,483.08,Single-ply,SBD,M,
Boys,67.13,8,Bryan Lee Rivera,Fort Stockton,66.68,176.9,106.59,174.63,458.13,Single-ply,SBD,M,
Boys,67.13,DQ,Jesus Villegas,Kermit,67.13,197.31,108.86,,,Single-ply,SBD,M,
Boys,67.13,DQ,Stefon Brown,Tulia,65.77,188.24,104.33,,,Single-ply,SBD,M,
Boys,67.13,DQ,Eric Martinez,Sweetwater,62.23,158.76,,,,Single-ply,SBD,M,
Boys,67.13,DQ,Landen Simmons,Slaton,66.22,192.78,124.74,,,Single-ply,SBD,M,
Boys,74.84,1,Sabien Perry,Dumas,72.94,240.4,127.01,229.06,596.47,Single-ply,SBD,M,
Boys,74.84,2,Chris Rader,Slaton,73.66,229.06,136.08,224.53,589.67,Single-ply,SBD,M,
Boys,74.84,3,Lucas Esparza,Andrews,71.12,226.8,124.74,222.26,573.79,Single-ply,SBD,M,
Boys,74.84,4,Derique Brooks,Lamesa,73.84,219.99,142.88,204.12,566.99,Single-ply,SBD,M,
Boys,74.84,5,James Bednorz,Dumas,74.12,219.99,136.08,204.12,560.19,Single-ply,SBD,M,
Boys,74.84,6,Shawn Mendoza,Big Spring,73.57,217.72,133.81,206.38,557.92,Single-ply,SBD,M,
Boys,74.84,7,Eddie Betancourt,Slaton,73.12,201.85,127.01,226.8,555.65,Single-ply,SBD,M,
Boys,74.84,8,Israel Loma,Perryton,71.58,201.85,127.01,215.46,544.31,Single-ply,SBD,M,
Boys,74.84,9,Uriel Avila,Perryton,73.3,208.65,127.01,208.65,544.31,Single-ply,SBD,M,
Boys,74.84,10,Jagger Puga,Dalhart,73.84,217.72,138.35,158.76,514.83,Single-ply,SBD,M,
Boys,74.84,11,Jimmy Vasquez,Midland Greenwood,73.57,217.72,97.52,197.31,512.56,Single-ply,SBD,M,
Boys,74.84,DQ,Don Bridges,Tuscola Jim Ned,74.66,195.04,133.81,,,Single-ply,SBD,M,
Boys,82.1,1,Skyler Davis,Levelland,81.47,229.06,133.81,267.62,630.49,Single-ply,SBD,M,
Boys,82.1,2,Alex Trevino,Lubbock Roosevelt,80.83,222.26,120.2,242.67,585.13,Single-ply,SBD,M,
Boys,82.1,3,Christian DeLuna,Big Lake Reagan County,81.1,233.6,142.88,208.65,585.13,Single-ply,SBD,M,
Boys,82.1,4,Junior Torres,Perryton,78.11,219.99,117.93,210.92,548.85,Single-ply,SBD,M,
Boys,82.1,5,Jaden Rodriguez,Perryton,81.28,244.94,127.01,174.63,546.58,Single-ply,SBD,M,
Boys,82.1,6,Loyd Eustace,Lubbock Roosevelt,81.01,208.65,117.93,208.65,535.24,Single-ply,SBD,M,
Boys,82.1,7,Nate Gensler JR,Sonora,78.11,204.12,124.74,204.12,532.97,Single-ply,SBD,M,
Boys,82.1,8,Damien Gonzales,Perryton,80.65,199.58,133.81,181.44,514.83,Single-ply,SBD,M,
Boys,82.1,9,Alex Natera,Alpine,81.1,179.17,131.54,197.31,508.02,Single-ply,SBD,M,
Boys,82.1,DQ,Kathan Valenzuela,Tulia,80.1,,,,,Single-ply,SBD,M,
Boys,82.1,DQ,Rino Hernandez,Sonora,81.74,181.44,,,,Single-ply,SBD,M,
Boys,89.81,1,Joe Barrera,Tulia,88.36,258.55,151.95,244.94,655.44,Single-ply,SBD,M,
Boys,89.81,2,JJ Diaz,Lubbock Roosevelt,88.45,247.21,154.22,242.67,644.1,Single-ply,SBD,M,
Boys,89.81,3,Tinaye Mubvumba,Vernon,88.18,249.48,136.08,249.48,635.03,Single-ply,SBD,M,
Boys,89.81,4,Angel Quiroz,Dumas,86.73,251.74,154.22,226.8,632.76,Single-ply,SBD,M,
Boys,89.81,5,Petronillo Bustamante,Andrews,86.64,238.14,131.54,249.48,619.15,Single-ply,SBD,M,
Boys,89.81,6,Devon Butler,Crane,89.18,242.67,149.69,199.58,591.94,Single-ply,SBD,M,
Boys,89.81,7,Fernando Zapata,Midland Greenwood,88,240.4,149.69,190.51,580.6,Single-ply,SBD,M,
Boys,89.81,8,Victor Salazar,Pecos,84.46,215.46,136.08,217.72,569.26,Single-ply,SBD,M,
Boys,89.81,9,Mark Hernandez #2,Dumas,88.54,213.19,140.61,208.65,562.45,Single-ply,SBD,M,
Boys,89.81,10,Damion Murga,Dumas,86.18,217.72,147.42,195.04,560.19,Single-ply,SBD,M,
Boys,89.81,11,Juan Saucedo,Big Lake Reagan County,87.91,226.8,131.54,199.58,557.92,Single-ply,SBD,M,
Boys,89.81,12,Logan Gray,Borger,85,210.92,136.08,206.38,553.38,Single-ply,SBD,M,
Boys,89.81,13,Justin Sanchez,Fort Stockton,86.73,190.51,142.88,195.04,528.44,Single-ply,SBD,M,
Boys,99.79,1,Ethan Coleman,Midland Greenwood,93.98,306.17,181.44,278.96,766.57,Single-ply,SBD,M,
Boys,99.79,2,Reyes Silva,Snyder,96.52,351.53,147.42,267.62,766.57,Single-ply,SBD,M,
Boys,99.79,3,Dustin Bledsoe,Canyon,97.25,249.48,138.35,235.87,623.69,Single-ply,SBD,M,
Boys,99.79,4,Jaxon Lawdermilk,Andrews,99.7,251.74,131.54,226.8,610.08,Single-ply,SBD,M,
Boys,99.79,5,Everett McGhee,Pecos,97.79,249.48,158.76,195.04,603.28,Single-ply,SBD,M,
Boys,99.79,6,Gerardo Gonzales,Dimmitt,96.07,204.12,117.93,249.48,571.53,Single-ply,SBD,M,
Boys,99.79,7,Gianni Escobar,Perryton,94.71,219.99,142.88,206.38,569.26,Single-ply,SBD,M,
Boys,99.79,8,Dalton Leven,Dumas,94.98,204.12,140.61,197.31,542.04,Single-ply,SBD,M,
Boys,99.79,9,Bryan Chacon,Perryton,96.71,201.85,102.06,235.87,539.77,Single-ply,SBD,M,
Boys,99.79,10,Thomas Sanchez,Lubbock Roosevelt,95.98,197.31,117.93,188.24,503.49,Single-ply,SBD,M,
Boys,99.79,NS,Edgar Flores,Fort Stockton,,,,,,Single-ply,SBD,M,
Boys,99.79,DQ,Elijah Dudley,Clyde,99.25,226.8,147.42,,,Single-ply,SBD,M,
Boys,109.77,1,Ashton Smith,Stanton,103.24,299.37,172.37,249.48,721.21,Single-ply,SBD,M,
Boys,109.77,2,Karlo Sanchez,Dumas,100.24,294.84,176.9,233.6,705.34,Single-ply,SBD,M,
Boys,109.77,3,Alonso Tarango,Perryton,100.24,276.69,176.9,238.14,691.73,Single-ply,SBD,M,
Boys,109.77,4,Mikial Burrola,Kermit,104.42,285.76,179.17,215.46,680.39,Single-ply,SBD,M,
Boys,109.77,5,Yostin Villagomez,Dalhart,108.86,272.16,163.29,210.92,646.37,Single-ply,SBD,M,
Boys,109.77,6,Jeremy Le,Sweetwater,108.23,251.74,163.29,219.99,635.03,Single-ply,SBD,M,
Boys,109.77,7,Irvin Delgado,Seminole,106.78,272.16,124.74,229.06,625.96,Single-ply,SBD,M,
Boys,109.77,8,Josue Castillo,Canyon,100.43,251.74,156.49,204.12,612.35,Single-ply,SBD,M,
Boys,109.77,9,Jaylon James,Snyder,107.23,272.16,133.81,197.31,603.28,Single-ply,SBD,M,
Boys,109.77,10,Ely Barrera,Sweetwater,107.05,215.46,120.2,263.08,598.74,Single-ply,SBD,M,
Boys,109.77,11,Seth McCrarey,Andrews,103.96,226.8,142.88,226.8,596.47,Single-ply,SBD,M,
Boys,109.77,12,Kesean Dever,Brownfield,106.59,231.33,122.47,213.19,566.99,Single-ply,SBD,M,
Boys,124.74,1,Shane Whitworth,Canyon,119.66,308.44,195.04,244.94,748.43,Single-ply,SBD,M,
Boys,124.74,2,Daniel Alvidrez,Perryton,115.58,285.76,136.08,249.48,671.32,Single-ply,SBD,M,
Boys,124.74,3,Isaiah Rodriguez,Big Spring,114.21,265.35,142.88,249.48,657.71,Single-ply,SBD,M,
Boys,124.74,4,Juan Ortiz,San Angelo Lake View,122.65,249.48,163.29,240.4,653.17,Single-ply,SBD,M,
Boys,124.74,5,Josiah Flores,Andrews,117.03,267.62,151.95,226.8,646.37,Single-ply,SBD,M,
Boys,124.74,6,Jake Padilla,Friona,114.31,247.21,149.69,217.72,614.62,Single-ply,SBD,M,
Boys,124.74,7,Gage Stanaland,Tuscola Jim Ned,114.94,240.4,147.42,219.99,607.81,Single-ply,SBD,M,
Boys,124.74,8,Roger Martinez,Stanton,120.84,256.28,140.61,181.44,578.33,Single-ply,SBD,M,
Boys,124.74,9,Hector Pando,Dumas,114.31,233.6,127.01,210.92,571.53,Single-ply,SBD,M,
Boys,124.74,10,Daniel Perea,Pecos,119.29,217.72,149.69,185.97,553.38,Single-ply,SBD,M,
Boys,124.74,11,Cade Bayer,Fort Stockton,114.12,199.58,120.2,213.19,532.97,Single-ply,SBD,M,
Boys,124.74,DQ,Marcos Villalobos,Sonora,116.39,217.72,113.4,,,Single-ply,SBD,M,
Boys,124.74,DQ,Elias Aquirre,Muleshoe,113.85,,,,,Single-ply,SBD,M,
Boys,139.71,1,Charles Aynes,Lamesa,128.37,272.16,167.83,231.33,671.32,Single-ply,SBD,M,
Boys,139.71,2,Lucas Martinez,Dumas,132.72,263.08,161.03,233.6,657.71,Single-ply,SBD,M,
Boys,139.71,3,Skyler Pulattie,Sweetwater,128.82,251.74,149.69,244.94,646.37,Single-ply,SBD,M,
Boys,139.71,4,Camron Price,Clyde,129,242.67,145.15,238.14,625.96,Single-ply,SBD,M,
Boys,139.71,5,Payden Alberts,Stanton,124.92,231.33,138.35,208.65,578.33,Single-ply,SBD,M,
Boys,139.71,6,Carlos Ramirez #1,Pecos,129.82,249.48,127.01,201.85,578.33,Single-ply,SBD,M,
Boys,139.71,7,Isaac Morales,Pecos,130.91,244.94,142.88,190.51,578.33,Single-ply,SBD,M,
Boys,139.71,8,Caleb Alexander,Seminole,130.63,254.01,129.27,183.7,566.99,Single-ply,SBD,M,
Boys,139.71,9,Alex Quintero #3,Slaton,125.01,213.19,142.88,190.51,546.58,Single-ply,SBD,M,
Boys,139.71,10,Juan Alvarez,Perryton,127.73,208.65,124.74,199.58,532.97,Single-ply,SBD,M,
Boys,139.71,11,Fernandeo Mendez,Brownfield,126.92,190.51,124.74,208.65,523.9,Single-ply,SBD,M,
Boys,139.71,DQ,Luis Mendoza,Fort Stockton,134.35,238.14,136.08,,,Single-ply,SBD,M,
Boys,139.71+,1,DeVondre Sledge,Tulia,155.13,254.01,145.15,240.4,639.57,Single-ply,SBD,M,
Boys,139.71+,2,Hunter Cobb,Pecos,150.68,247.21,161.03,208.65,616.89,Single-ply,SBD,M,
Boys,139.71+,3,Jimmy Ayala,Childress,144.51,263.08,127.01,206.38,596.47,Single-ply,SBD,M,
Boys,139.71+,4,Chico Delgado,Andrews,142.07,226.8,145.15,188.24,560.19,Single-ply,SBD,M,
Boys,139.71+,5,Sean Castillo,Brownfield,204.12,217.72,183.7,158.76,560.19,Single-ply,SBD,M,
Boys,139.71+,6,Ben Turner,Dalhart,151.95,210.92,129.27,174.63,514.83,Single-ply,SBD,M,
Boys,139.71+,7,Roberto Ramirez,Fort Stockton,141.43,217.72,124.74,163.29,505.76,Single-ply,SBD,M,
Boys,139.71+,8,Keegan Ireland,Dumas,142.34,190.51,106.59,204.12,501.22,Single-ply,SBD,M,
Boys,139.71+,9,John Reagan,Coahoma,152.04,120.2,79.38,136.08,335.66,Single-ply,SBD,M,
Boys,139.71+,DQ,Caleb Branham,Borger,142.7,,,,,Single-ply,SBD,M,
